-0.025,-0.12,-0.0276
-0.02498,-0.14,-0.0276
-0.02496,-0.16,-0.0276
-0.02494,-0.16,-0.0276
-0.02492,-0.18,-0.0276
-0.0249,-0.2,-0.0276
-0.02488,-0.22,-0.0272
-0.02486,-0.24,-0.0272
-0.02484,-0.26,-0.0272
-0.02482,-0.28,-0.0268
-0.0248,-0.3,-0.0268
-0.02478,-0.32,-0.0268
-0.02476,-0.34,-0.0264
-0.02474,-0.34,-0.0264
-0.02472,-0.36,-0.0264
-0.0247,-0.38,-0.026
-0.02468,-0.4,-0.026
-0.02466,-0.42,-0.026
-0.02464,-0.42,-0.0256
-0.02462,-0.44,-0.0256
-0.0246,-0.46,-0.0252
-0.02458,-0.48,-0.0248
-0.02456,-0.5,-0.0244
-0.02454,-0.5,-0.0244
-0.02452,-0.52,-0.024
-0.0245,-0.54,-0.024
-0.02448,-0.54,-0.0236
-0.02446,-0.56,-0.0232
-0.02444,-0.58,-0.0228
-0.02442,-0.6,-0.0228
-0.0244,-0.62,-0.0224
-0.02438,-0.62,-0.0224
-0.02436,-0.64,-0.022
-0.02434,-0.64,-0.0216
-0.02432,-0.66,-0.0212
-0.0243,-0.68,-0.0208
-0.02428,-0.68,-0.0204
-0.02426,-0.7,-0.02
-0.02424,-0.72,-0.02
-0.02422,-0.72,-0.0196
-0.0242,-0.74,-0.0192
-0.02418,-0.74,-0.0188
-0.02416,-0.76,-0.0184
-0.02414,-0.78,-0.018
-0.02412,-0.78,-0.0176
-0.0241,-0.8,-0.0172
-0.02408,-0.8,-0.0168
-0.02406,-0.82,-0.0164
-0.02404,-0.82,-0.016
-0.02402,-0.84,-0.0156
-0.024,-0.84,-0.0152
-0.02398,-0.86,-0.0148
-0.02396,-0.86,-0.0144
-0.02394,-0.88,-0.014
-0.02392,-0.88,-0.0136
-0.0239,-0.88,-0.0132
-0.02388,-0.9,-0.0128
-0.02386,-0.9,-0.012
-0.02384,-0.92,-0.0116
-0.02382,-0.92,-0.0112
-0.0238,-0.92,-0.0108
-0.02378,-0.92,-0.0104
-0.02376,-0.94,-0.01
-0.02374,-0.94,-0.0092
-0.02372,-0.94,-0.0088
-0.0237,-0.96,-0.0084
-0.02368,-0.96,-0.008
-0.02366,-0.96,-0.0076
-0.02364,-0.96,-0.0072
-0.02362,-0.98,-0.0064
-0.0236,-0.98,-0.006
-0.02358,-0.98,-0.0056
-0.02356,-0.98,-0.0052
-0.02354,-0.98,-0.0044
-0.02352,-0.98,-0.004
-0.0235,-1,-0.0036
-0.02348,-1,-0.0028
-0.02346,-1,-0.0024
-0.02344,-1,-0.002
-0.02342,-1,-0.0012
-0.0234,-1,-0.0008
-0.02338,-1,-0.0004
-0.02336,-1,0
-0.02334,-1,0.0008
-0.02332,-1,0.0012
-0.0233,-1,0.0016
-0.02328,-1,0.002
-0.02326,-0.98,0.0028
-0.02324,-0.98,0.0032
-0.02322,-0.98,0.0036
-0.0232,-0.98,0.004
-0.02318,-0.98,0.0044
-0.02316,-0.98,0.0052
-0.02314,-0.98,0.0056
-0.02312,-0.96,0.006
-0.0231,-0.96,0.0064
-0.02308,-0.96,0.0072
-0.02306,-0.96,0.0076
-0.02304,-0.94,0.008
-0.02302,-0.94,0.0084
-0.023,-0.94,0.0092
-0.02298,-0.92,0.0096
-0.02296,-0.92,0.01
-0.02294,-0.92,0.0104
-0.02292,-0.92,0.0108
-0.0229,-0.9,0.0112
-0.02288,-0.9,0.012
-0.02286,-0.9,0.0124
-0.02284,-0.88,0.0128
-0.02282,-0.88,0.0132
-0.0228,-0.86,0.014
-0.02278,-0.86,0.0144
-0.02276,-0.84,0.0148
-0.02274,-0.84,0.0152
-0.02272,-0.82,0.0156
-0.0227,-0.82,0.0156
-0.02268,-0.8,0.0164
-0.02266,-0.8,0.0168
-0.02264,-0.78,0.0172
-0.02262,-0.78,0.0176
-0.0226,-0.76,0.018
-0.02258,-0.76,0.0184
-0.02256,-0.74,0.0188
-0.02254,-0.72,0.0192
-0.02252,-0.72,0.0196
-0.0225,-0.7,0.02
-0.02248,-0.7,0.0204
-0.02246,-0.68,0.0208
-0.02244,-0.68,0.0212
-0.02242,-0.66,0.0216
-0.0224,-0.64,0.0216
-0.02238,-0.62,0.022
-0.02236,-0.62,0.0224
-0.02234,-0.6,0.0228
-0.02232,-0.58,0.0228
-0.0223,-0.56,0.0232
-0.02228,-0.56,0.0236
-0.02226,-0.54,0.024
-0.02224,-0.52,0.0244
-0.02222,-0.52,0.0248
-0.0222,-0.5,0.0248
-0.02218,-0.48,0.0252
-0.02216,-0.46,0.0252
-0.02214,-0.44,0.0256
-0.02212,-0.42,0.0256
-0.0221,-0.42,0.026
-0.02208,-0.4,0.0264
-0.02206,-0.38,0.0264
-0.02204,-0.36,0.0264
-0.02202,-0.34,0.0268
-0.022,-0.34,0.0268
-0.02198,-0.32,0.0272
-0.02196,-0.3,0.0276
-0.02194,-0.28,0.0276
-0.02192,-0.26,0.0276
-0.0219,-0.24,0.028
-0.02188,-0.24,0.0284
-0.02186,-0.22,0.0284
-0.02184,-0.2,0.0284
-0.02182,-0.18,0.0284
-0.0218,-0.16,0.0284
-0.02178,-0.14,0.0288
-0.02176,-0.12,0.0288
-0.02174,-0.1,0.0288
-0.02172,-0.08,0.0292
-0.0217,-0.06,0.0292
-0.02168,-0.04,0.0292
-0.02166,-0.04,0.0292
-0.02164,-0.02,0.0292
-0.02162,0,0.0292
-0.0216,0.02,0.0292
-0.02158,0.04,0.0292
-0.02156,0.06,0.0292
-0.02154,0.08,0.0292
-0.02152,0.1,0.0292
-0.0215,0.12,0.0292
-0.02148,0.12,0.0292
-0.02146,0.14,0.0292
-0.02144,0.16,0.0292
-0.02142,0.18,0.0292
-0.0214,0.2,0.0292
-0.02138,0.22,0.0292
-0.02136,0.24,0.0288
-0.02134,0.24,0.0288
-0.02132,0.26,0.0288
-0.0213,0.28,0.0288
-0.02128,0.3,0.0284
-0.02126,0.32,0.0284
-0.02124,0.34,0.0284
-0.02122,0.36,0.028
-0.0212,0.38,0.028
-0.02118,0.38,0.028
-0.02116,0.4,0.0276
-0.02114,0.42,0.0276
-0.02112,0.44,0.0272
-0.0211,0.46,0.0272
-0.02108,0.48,0.0268
-0.02106,0.48,0.0268
-0.02104,0.5,0.0264
-0.02102,0.52,0.0264
-0.021,0.54,0.026
-0.02098,0.56,0.026
-0.02096,0.56,0.0256
-0.02094,0.58,0.0256
-0.02092,0.6,0.0252
-0.0209,0.62,0.0252
-0.02088,0.62,0.0248
-0.02086,0.64,0.0244
-0.02084,0.66,0.024
-0.02082,0.66,0.024
-0.0208,0.68,0.0236
-0.02078,0.7,0.0232
-0.02076,0.72,0.0232
-0.02074,0.72,0.0228
-0.02072,0.74,0.0224
-0.0207,0.74,0.022
-0.02068,0.76,0.0216
-0.02066,0.76,0.0212
-0.02064,0.78,0.0212
-0.02062,0.8,0.0204
-0.0206,0.8,0.02
-0.02058,0.82,0.02
-0.02056,0.82,0.0196
-0.02054,0.84,0.0192
-0.02052,0.84,0.0184
-0.0205,0.86,0.0184
-0.02048,0.88,0.018
-0.02046,0.88,0.0176
-0.02044,0.9,0.0168
-0.02042,0.9,0.0164
-0.0204,0.92,0.016
-0.02038,0.92,0.0156
-0.02036,0.92,0.0152
-0.02034,0.94,0.0148
-0.02032,0.94,0.0144
-0.0203,0.94,0.014
-0.02028,0.96,0.0136
-0.02026,0.96,0.0132
-0.02024,0.98,0.0124
-0.02022,0.98,0.012
-0.0202,0.98,0.0116
-0.02018,1,0.0112
-0.02016,1,0.0108
-0.02014,1,0.01
-0.02012,1,0.01
-0.0201,1.02,0.0092
-0.02008,1.02,0.0088
-0.02006,1.02,0.0084
-0.02004,1.02,0.008
-0.02002,1.02,0.0072
-0.02,1.02,0.0068
-0.01998,1.02,0.0064
-0.01996,1.02,0.006
-0.01994,1.04,0.0056
-0.01992,1.04,0.0048
-0.0199,1.04,0.0044
-0.01988,1.04,0.004
-0.01986,1.04,0.0032
-0.01984,1.04,0.0028
-0.01982,1.04,0.0024
-0.0198,1.04,0.002
-0.01978,1.04,0.0012
-0.01976,1.04,0.0008
-0.01974,1.04,0.0004
-0.01972,1.04,0
-0.0197,1.04,-0.0008
-0.01968,1.04,-0.0012
-0.01966,1.04,-0.0016
-0.01964,1.04,-0.0024
-0.01962,1.04,-0.0028
-0.0196,1.02,-0.0032
-0.01958,1.02,-0.004
-0.01956,1.02,-0.0044
-0.01954,1.02,-0.0048
-0.01952,1.02,-0.0052
-0.0195,1.02,-0.0056
-0.01948,1,-0.0064
-0.01946,1,-0.0068
-0.01944,1,-0.0072
-0.01942,0.98,-0.0076
-0.0194,0.98,-0.0084
-0.01938,0.98,-0.0088
-0.01936,0.96,-0.0092
-0.01934,0.96,-0.0096
-0.01932,0.96,-0.01
-0.0193,0.94,-0.0108
-0.01928,0.94,-0.0112
-0.01926,0.92,-0.0116
-0.01924,0.92,-0.012
-0.01922,0.92,-0.0124
-0.0192,0.9,-0.0128
-0.01918,0.9,-0.0132
-0.01916,0.88,-0.0136
-0.01914,0.88,-0.014
-0.01912,0.86,-0.0148
-0.0191,0.86,-0.0148
-0.01908,0.84,-0.0156
-0.01906,0.84,-0.0156
-0.01904,0.82,-0.016
-0.01902,0.82,-0.0164
-0.019,0.8,-0.0168
-0.01898,0.78,-0.0172
-0.01896,0.78,-0.018
-0.01894,0.76,-0.0184
-0.01892,0.76,-0.0188
-0.0189,0.74,-0.0188
-0.01888,0.72,-0.0192
-0.01886,0.72,-0.0196
-0.01884,0.7,-0.02
-0.01882,0.68,-0.0204
-0.0188,0.68,-0.0208
-0.01878,0.66,-0.0212
-0.01876,0.64,-0.0216
-0.01874,0.64,-0.0216
-0.01872,0.62,-0.022
-0.0187,0.6,-0.0224
-0.01868,0.58,-0.0228
-0.01866,0.58,-0.0228
-0.01864,0.56,-0.0232
-0.01862,0.54,-0.0236
-0.0186,0.52,-0.0236
-0.01858,0.52,-0.024
-0.01856,0.5,-0.0244
-0.01854,0.48,-0.0244
-0.01852,0.46,-0.0248
-0.0185,0.44,-0.0248
-0.01848,0.42,-0.0252
-0.01846,0.42,-0.0252
-0.01844,0.4,-0.0256
-0.01842,0.38,-0.026
-0.0184,0.36,-0.026
-0.01838,0.34,-0.026
-0.01836,0.34,-0.0264
-0.01834,0.32,-0.0264
-0.01832,0.3,-0.0268
-0.0183,0.28,-0.0268
-0.01828,0.26,-0.0268
-0.01826,0.24,-0.0272
-0.01824,0.22,-0.0272
-0.01822,0.2,-0.0272
-0.0182,0.2,-0.0272
-0.01818,0.18,-0.0272
-0.01816,0.16,-0.0272
-0.01814,0.14,-0.0276
-0.01812,0.12,-0.0276
-0.0181,0.1,-0.0276
-0.01808,0.08,-0.0276
-0.01806,0.06,-0.0276
-0.01804,0.04,-0.028
-0.01802,0.04,-0.028
-0.018,0.02,-0.028
-0.01798,0,-0.028
-0.01796,-0.02,-0.028
-0.01794,-0.04,-0.028
-0.01792,-0.06,-0.028
-0.0179,-0.08,-0.028
-0.01788,-0.1,-0.028
-0.01786,-0.12,-0.028
-0.01784,-0.14,-0.0276
-0.01782,-0.14,-0.0276
-0.0178,-0.16,-0.0276
-0.01778,-0.18,-0.0276
-0.01776,-0.2,-0.0272
-0.01774,-0.22,-0.0272
-0.01772,-0.24,-0.0272
-0.0177,-0.26,-0.0272
-0.01768,-0.28,-0.0272
-0.01766,-0.3,-0.0268
-0.01764,-0.32,-0.0268
-0.01762,-0.34,-0.0264
-0.0176,-0.34,-0.0264
-0.01758,-0.36,-0.0264
-0.01756,-0.38,-0.026
-0.01754,-0.4,-0.026
-0.01752,-0.4,-0.026
-0.0175,-0.42,-0.0256
-0.01748,-0.44,-0.0252
-0.01746,-0.46,-0.0252
-0.01744,-0.48,-0.0248
-0.01742,-0.5,-0.0248
-0.0174,-0.5,-0.0244
-0.01738,-0.52,-0.024
-0.01736,-0.52,-0.0236
-0.01734,-0.54,-0.0236
-0.01732,-0.56,-0.0232
-0.0173,-0.58,-0.0232
-0.01728,-0.6,-0.0228
-0.01726,-0.6,-0.0224
-0.01724,-0.62,-0.0224
-0.01722,-0.64,-0.022
-0.0172,-0.64,-0.0216
-0.01718,-0.66,-0.0212
-0.01716,-0.68,-0.0208
-0.01714,-0.68,-0.0208
-0.01712,-0.7,-0.0204
-0.0171,-0.72,-0.02
-0.01708,-0.72,-0.0196
-0.01706,-0.74,-0.0192
-0.01704,-0.74,-0.0188
-0.01702,-0.76,-0.0184
-0.017,-0.78,-0.018
-0.01698,-0.78,-0.018
-0.01696,-0.8,-0.0176
-0.01694,-0.8,-0.0168
-0.01692,-0.82,-0.0164
-0.0169,-0.82,-0.016
-0.01688,-0.84,-0.0156
-0.01686,-0.84,-0.0152
-0.01684,-0.86,-0.0148
-0.01682,-0.86,-0.0144
-0.0168,-0.88,-0.014
-0.01678,-0.88,-0.0136
-0.01676,-0.88,-0.0132
-0.01674,-0.9,-0.0128
-0.01672,-0.9,-0.0124
-0.0167,-0.92,-0.012
-0.01668,-0.92,-0.0112
-0.01666,-0.92,-0.0108
-0.01664,-0.92,-0.0104
-0.01662,-0.94,-0.01
-0.0166,-0.94,-0.0096
-0.01658,-0.94,-0.0088
-0.01656,-0.96,-0.0084
-0.01654,-0.96,-0.008
-0.01652,-0.96,-0.0076
-0.0165,-0.96,-0.0068
-0.01648,-0.98,-0.0064
-0.01646,-0.98,-0.006
-0.01644,-0.98,-0.0056
-0.01642,-0.98,-0.0052
-0.0164,-0.98,-0.0044
-0.01638,-0.98,-0.004
-0.01636,-0.98,-0.0036
-0.01634,-1,-0.0032
-0.01632,-1,-0.0024
-0.0163,-1,-0.002
-0.01628,-1,-0.0016
-0.01626,-1,-0.0012
-0.01624,-1,-0.0004
-0.01622,-1,0
-0.0162,-1,0.0004
-0.01618,-1,0.0012
-0.01616,-1,0.0016
-0.01614,-1,0.002
-0.01612,-0.98,0.0024
-0.0161,-0.98,0.0032
-0.01608,-0.98,0.0036
-0.01606,-0.98,0.004
-0.01604,-0.98,0.0044
-0.01602,-0.98,0.0052
-0.016,-0.98,0.0056
-0.01598,-0.96,0.006
-0.01596,-0.96,0.0064
-0.01594,-0.96,0.0072
-0.01592,-0.96,0.0076
-0.0159,-0.94,0.008
-0.01588,-0.94,0.0084
-0.01586,-0.94,0.0092
-0.01584,-0.94,0.0096
-0.01582,-0.92,0.01
-0.0158,-0.92,0.0104
-0.01578,-0.92,0.0108
-0.01576,-0.9,0.0112
-0.01574,-0.9,0.012
-0.01572,-0.9,0.0124
-0.0157,-0.88,0.0128
-0.01568,-0.88,0.0132
-0.01566,-0.88,0.0136
-0.01564,-0.86,0.0144
-0.01562,-0.86,0.0148
-0.0156,-0.84,0.0152
-0.01558,-0.82,0.0156
-0.01556,-0.82,0.0156
-0.01554,-0.82,0.0164
-0.01552,-0.8,0.0168
-0.0155,-0.78,0.0172
-0.01548,-0.78,0.0176
-0.01546,-0.76,0.018
-0.01544,-0.76,0.0184
-0.01542,-0.74,0.0188
-0.0154,-0.72,0.0192
-0.01538,-0.72,0.0196
-0.01536,-0.7,0.02
-0.01534,-0.7,0.0204
-0.01532,-0.68,0.0208
-0.0153,-0.68,0.0208
-0.01528,-0.66,0.0212
-0.01526,-0.64,0.0216
-0.01524,-0.62,0.022
-0.01522,-0.62,0.0224
-0.0152,-0.6,0.0228
-0.01518,-0.58,0.0228
-0.01516,-0.56,0.0232
-0.01514,-0.56,0.0236
-0.01512,-0.54,0.024
-0.0151,-0.52,0.0244
-0.01508,-0.52,0.0244
-0.01506,-0.5,0.0248
-0.01504,-0.48,0.0252
-0.01502,-0.46,0.0252
-0.015,-0.44,0.0256
-0.01498,-0.44,0.0256
-0.01496,-0.42,0.026
-0.01494,-0.4,0.0264
-0.01492,-0.38,0.0264
-0.0149,-0.36,0.0264
-0.01488,-0.36,0.0268
-0.01486,-0.34,0.0268
-0.01484,-0.32,0.0272
-0.01482,-0.3,0.0276
-0.0148,-0.28,0.0276
-0.01478,-0.26,0.0276
-0.01476,-0.26,0.028
-0.01474,-0.24,0.028
-0.01472,-0.22,0.0284
-0.0147,-0.2,0.0284
-0.01468,-0.18,0.0284
-0.01466,-0.16,0.0284
-0.01464,-0.14,0.0288
-0.01462,-0.12,0.0288
-0.0146,-0.1,0.0288
-0.01458,-0.1,0.0288
-0.01456,-0.08,0.0292
-0.01454,-0.06,0.0292
-0.01452,-0.04,0.0292
-0.0145,-0.02,0.0292
-0.01448,0,0.0292
-0.01446,0.02,0.0292
-0.01444,0.04,0.0292
-0.01442,0.06,0.0292
-0.0144,0.08,0.0292
-0.01438,0.08,0.0292
-0.01436,0.1,0.0292
-0.01434,0.12,0.0292
-0.01432,0.14,0.0292
-0.0143,0.16,0.0292
-0.01428,0.18,0.0292
-0.01426,0.2,0.0292
-0.01424,0.22,0.0292
-0.01422,0.24,0.0288
-0.0142,0.24,0.0288
-0.01418,0.26,0.0288
-0.01416,0.28,0.0288
-0.01414,0.3,0.0284
-0.01412,0.32,0.0284
-0.0141,0.34,0.0284
-0.01408,0.36,0.028
-0.01406,0.36,0.028
-0.01404,0.38,0.0276
-0.01402,0.4,0.028
-0.014,0.42,0.0276
-0.01398,0.44,0.0272
-0.01396,0.44,0.0272
-0.01394,0.46,0.0268
-0.01392,0.48,0.0268
-0.0139,0.5,0.0264
-0.01388,0.52,0.0264
-0.01386,0.54,0.0264
-0.01384,0.54,0.026
-0.01382,0.56,0.0256
-0.0138,0.58,0.0256
-0.01378,0.6,0.0252
-0.01376,0.62,0.0252
-0.01374,0.62,0.0248
-0.01372,0.64,0.0244
-0.0137,0.66,0.024
-0.01368,0.66,0.024
-0.01366,0.68,0.0236
-0.01364,0.7,0.0232
-0.01362,0.7,0.0232
-0.0136,0.72,0.0228
-0.01358,0.74,0.0224
-0.01356,0.74,0.022
-0.01354,0.76,0.0216
-0.01352,0.76,0.0212
-0.0135,0.78,0.0208
-0.01348,0.8,0.0204
-0.01346,0.8,0.0204
-0.01344,0.82,0.02
-0.01342,0.82,0.0192
-0.0134,0.84,0.0192
-0.01338,0.84,0.0188
-0.01336,0.86,0.0184
-0.01334,0.86,0.018
-0.01332,0.88,0.0176
-0.0133,0.9,0.0172
-0.01328,0.9,0.0168
-0.01326,0.92,0.0164
-0.01324,0.92,0.0156
-0.01322,0.92,0.0152
-0.0132,0.94,0.0148
-0.01318,0.94,0.0144
-0.01316,0.94,0.014
-0.01314,0.96,0.0136
-0.01312,0.96,0.0132
-0.0131,0.96,0.0128
-0.01308,0.98,0.012
-0.01306,0.98,0.0116
-0.01304,0.98,0.0112
-0.01302,1,0.0108
-0.013,1,0.0104
-0.01298,1,0.0096
-0.01296,1.02,0.0092
-0.01294,1.02,0.0088
-0.01292,1.02,0.0084
-0.0129,1.02,0.008
-0.01288,1.02,0.0076
-0.01286,1.02,0.0072
-0.01284,1.02,0.0064
-0.01282,1.04,0.006
-0.0128,1.04,0.0052
-0.01278,1.04,0.0048
-0.01276,1.04,0.0044
-0.01274,1.04,0.004
-0.01272,1.04,0.0032
-0.0127,1.04,0.0028
-0.01268,1.04,0.0024
-0.01266,1.04,0.002
-0.01264,1.04,0.0012
-0.01262,1.04,0.0008
-0.0126,1.04,0.0004
-0.01258,1.04,0
-0.01256,1.04,-0.0008
-0.01254,1.04,-0.0012
-0.01252,1.04,-0.0016
-0.0125,1.04,-0.002
-0.01248,1.04,-0.0028
-0.01246,1.02,-0.0032
-0.01244,1.02,-0.004
-0.01242,1.02,-0.004
-0.0124,1.02,-0.0048
-0.01238,1.02,-0.0052
-0.01236,1.02,-0.0056
-0.01234,1,-0.0064
-0.01232,1,-0.0064
-0.0123,1,-0.0072
-0.01228,0.98,-0.0076
-0.01226,0.98,-0.008
-0.01224,0.98,-0.0084
-0.01222,0.96,-0.0088
-0.0122,0.96,-0.0096
-0.01218,0.96,-0.01
-0.01216,0.94,-0.0104
-0.01214,0.94,-0.0112
-0.01212,0.94,-0.0116
-0.0121,0.92,-0.012
-0.01208,0.92,-0.0124
-0.01206,0.92,-0.0128
-0.01204,0.9,-0.0132
-0.01202,0.88,-0.0136
-0.012,0.88,-0.014
-0.01198,0.86,-0.0148
-0.01196,0.86,-0.0148
-0.01194,0.84,-0.0152
-0.01192,0.84,-0.0156
-0.0119,0.82,-0.016
-0.01188,0.82,-0.0164
-0.01186,0.8,-0.0168
-0.01184,0.8,-0.0172
-0.01182,0.78,-0.018
-0.0118,0.76,-0.0184
-0.01178,0.76,-0.0184
-0.01176,0.74,-0.0188
-0.01174,0.72,-0.0192
-0.01172,0.72,-0.0196
-0.0117,0.7,-0.02
-0.01168,0.7,-0.0204
-0.01166,0.68,-0.0208
-0.01164,0.66,-0.0212
-0.01162,0.64,-0.0212
-0.0116,0.64,-0.0216
-0.01158,0.62,-0.022
-0.01156,0.6,-0.0224
-0.01154,0.58,-0.0228
-0.01152,0.58,-0.0228
-0.0115,0.56,-0.0232
-0.01148,0.54,-0.0232
-0.01146,0.52,-0.0236
-0.01144,0.52,-0.024
-0.01142,0.5,-0.024
-0.0114,0.48,-0.0244
-0.01138,0.46,-0.0244
-0.01136,0.44,-0.0248
-0.01134,0.44,-0.0248
-0.01132,0.42,-0.0252
-0.0113,0.4,-0.0256
-0.01128,0.38,-0.026
-0.01126,0.36,-0.026
-0.01124,0.34,-0.026
-0.01122,0.34,-0.0264
-0.0112,0.32,-0.0264
-0.01118,0.3,-0.0268
-0.01116,0.28,-0.0268
-0.01114,0.26,-0.0268
-0.01112,0.24,-0.0268
-0.0111,0.22,-0.0272
-0.01108,0.22,-0.0272
-0.01106,0.2,-0.0272
-0.01104,0.18,-0.0272
-0.01102,0.16,-0.0276
-0.011,0.14,-0.0276
-0.01098,0.12,-0.0276
-0.01096,0.1,-0.0276
-0.01094,0.08,-0.0276
-0.01092,0.06,-0.0276
-0.0109,0.06,-0.028
-0.01088,0.04,-0.028
-0.01086,0.02,-0.028
-0.01084,0,-0.028
-0.01082,-0.02,-0.028
-0.0108,-0.04,-0.028
-0.01078,-0.06,-0.028
-0.01076,-0.08,-0.028
-0.01074,-0.1,-0.028
-0.01072,-0.12,-0.028
-0.0107,-0.14,-0.0276
-0.01068,-0.14,-0.0276
-0.01066,-0.16,-0.0276
-0.01064,-0.18,-0.0276
-0.01062,-0.2,-0.0276
-0.0106,-0.22,-0.0272
-0.01058,-0.24,-0.0272
-0.01056,-0.26,-0.0272
-0.01054,-0.28,-0.0268
-0.01052,-0.28,-0.0268
-0.0105,-0.32,-0.0268
-0.01048,-0.32,-0.0268
-0.01046,-0.34,-0.0264
-0.01044,-0.36,-0.0264
-0.01042,-0.36,-0.026
-0.0104,-0.38,-0.026
-0.01038,-0.4,-0.0256
-0.01036,-0.42,-0.0256
-0.01034,-0.44,-0.0256
-0.01032,-0.46,-0.0252
-0.0103,-0.46,-0.0248
-0.01028,-0.48,-0.0248
-0.01026,-0.5,-0.0244
-0.01024,-0.52,-0.0244
-0.01022,-0.52,-0.024
-0.0102,-0.54,-0.0236
-0.01018,-0.56,-0.0232
-0.01016,-0.58,-0.0232
-0.01014,-0.6,-0.0228
-0.01012,-0.6,-0.0228
-0.0101,-0.62,-0.0224
-0.01008,-0.62,-0.022
-0.01006,-0.64,-0.0216
-0.01004,-0.66,-0.0216
-0.01002,-0.68,-0.0208
-0.01,-0.68,-0.0208
-0.00998,-0.7,-0.0204
-0.00996,-0.7,-0.02
-0.00994,-0.72,-0.0196
-0.00992,-0.74,-0.0192
-0.0099,-0.74,-0.0188
-0.00988,-0.76,-0.0188
-0.00986,-0.76,-0.0184
-0.00984,-0.78,-0.018
-0.00982,-0.8,-0.0176
-0.0098,-0.8,-0.0172
-0.00978,-0.82,-0.0164
-0.00976,-0.82,-0.0164
-0.00974,-0.84,-0.0156
-0.00972,-0.84,-0.0152
-0.0097,-0.86,-0.0152
-0.00968,-0.86,-0.0148
-0.00966,-0.86,-0.014
-0.00964,-0.88,-0.0136
-0.00962,-0.88,-0.0132
-0.0096,-0.9,-0.0128
-0.00958,-0.9,-0.0124
-0.00956,-0.9,-0.0116
-0.00954,-0.92,-0.0116
-0.00952,-0.92,-0.0108
-0.0095,-0.92,-0.0104
-0.00948,-0.94,-0.01
-0.00946,-0.94,-0.0096
-0.00944,-0.94,-0.0092
-0.00942,-0.96,-0.0084
-0.0094,-0.96,-0.008
-0.00938,-0.96,-0.0076
-0.00936,-0.96,-0.0072
-0.00934,-0.98,-0.0068
-0.00932,-0.98,-0.0064
-0.0093,-0.98,-0.0056
-0.00928,-0.98,-0.0052
-0.00926,-0.98,-0.0048
-0.00924,-0.98,-0.0044
-0.00922,-1,-0.0036
-0.0092,-1,-0.0032
-0.00918,-1,-0.0024
-0.00916,-1,-0.002
-0.00914,-1,-0.0016
-0.00912,-1,-0.0008
-0.0091,-1,-0.0008
-0.00908,-1,0
-0.00906,-1,0.0004
-0.00904,-1,0.0012
-0.00902,-1,0.0016
-0.009,-1,0.002
-0.00898,-1,0.0024
-0.00896,-0.98,0.0032
-0.00894,-0.98,0.0036
-0.00892,-0.98,0.004
-0.0089,-0.98,0.0044
-0.00888,-0.98,0.0052
-0.00886,-0.98,0.0056
-0.00884,-0.98,0.006
-0.00882,-0.96,0.0064
-0.0088,-0.96,0.0072
-0.00878,-0.96,0.0076
-0.00876,-0.94,0.008
-0.00874,-0.94,0.0084
-0.00872,-0.94,0.0088
-0.0087,-0.92,0.0096
-0.00868,-0.92,0.01
-0.00866,-0.92,0.0104
-0.00864,-0.92,0.0108
-0.00862,-0.9,0.0112
-0.0086,-0.9,0.0116
-0.00858,-0.9,0.0124
-0.00856,-0.88,0.0128
-0.00854,-0.88,0.0132
-0.00852,-0.88,0.0136
-0.0085,-0.86,0.014
-0.00848,-0.86,0.0144
-0.00846,-0.84,0.0148
-0.00844,-0.82,0.0156
-0.00842,-0.82,0.0156
-0.0084,-0.82,0.0164
-0.00838,-0.8,0.0168
-0.00836,-0.78,0.0168
-0.00834,-0.78,0.0176
-0.00832,-0.76,0.018
-0.0083,-0.76,0.0184
-0.00828,-0.74,0.0188
-0.00826,-0.72,0.0192
-0.00824,-0.72,0.0192
-0.00822,-0.7,0.0196
-0.0082,-0.7,0.0204
-0.00818,-0.68,0.0204
-0.00816,-0.68,0.0208
-0.00814,-0.66,0.0212
-0.00812,-0.64,0.0216
-0.0081,-0.62,0.022
-0.00808,-0.62,0.0224
-0.00806,-0.6,0.0228
-0.00804,-0.58,0.0228
-0.00802,-0.58,0.0232
-0.008,-0.56,0.0236
-0.00798,-0.54,0.024
-0.00796,-0.52,0.0244
-0.00794,-0.52,0.0244
-0.00792,-0.5,0.0248
-0.0079,-0.48,0.0252
-0.00788,-0.46,0.0252
-0.00786,-0.46,0.0256
-0.00784,-0.44,0.0256
-0.00782,-0.42,0.026
-0.0078,-0.4,0.0264
-0.00778,-0.38,0.0264
-0.00776,-0.38,0.0264
-0.00774,-0.36,0.0268
-0.00772,-0.34,0.0268
-0.0077,-0.32,0.0272
-0.00768,-0.3,0.0272
-0.00766,-0.3,0.0276
-0.00764,-0.28,0.0276
-0.00762,-0.26,0.028
-0.0076,-0.24,0.028
-0.00758,-0.22,0.0284
-0.00756,-0.2,0.0284
-0.00754,-0.18,0.0284
-0.00752,-0.16,0.0288
-0.0075,-0.14,0.0288
-0.00748,-0.14,0.0288
-0.00746,-0.12,0.0288
-0.00744,-0.1,0.0288
-0.00742,-0.08,0.0288
-0.0074,-0.06,0.0292
-0.00738,-0.04,0.0292
-0.00736,-0.02,0.0292
-0.00734,0,0.0292
-0.00732,0.02,0.0292
-0.0073,0.04,0.0292
-0.00728,0.06,0.0292
-0.00726,0.06,0.0292
-0.00724,0.08,0.0292
-0.00722,0.1,0.0292
-0.0072,0.12,0.0292
-0.00718,0.14,0.0292
-0.00716,0.16,0.0292
-0.00714,0.18,0.0292
-0.00712,0.2,0.0292
-0.0071,0.22,0.0292
-0.00708,0.22,0.0288
-0.00706,0.24,0.0288
-0.00704,0.26,0.0288
-0.00702,0.28,0.0284
-0.007,0.3,0.0284
-0.00698,0.32,0.0284
-0.00696,0.34,0.0284
-0.00694,0.36,0.0284
-0.00692,0.36,0.028
-0.0069,0.38,0.0276
-0.00688,0.4,0.0276
-0.00686,0.42,0.0276
-0.00684,0.44,0.0272
-0.00682,0.44,0.0272
-0.0068,0.46,0.0268
-0.00678,0.48,0.0268
-0.00676,0.5,0.0264
-0.00674,0.52,0.0264
-0.00672,0.54,0.026
-0.0067,0.54,0.026
-0.00668,0.56,0.0256
-0.00666,0.58,0.0256
-0.00664,0.6,0.0256
-0.00662,0.6,0.0252
-0.0066,0.62,0.0248
-0.00658,0.64,0.0244
-0.00656,0.64,0.024
-0.00654,0.66,0.024
-0.00652,0.68,0.0236
-0.0065,0.7,0.0232
-0.00648,0.7,0.0232
-0.00646,0.72,0.0228
-0.00644,0.74,0.0224
-0.00642,0.74,0.022
-0.0064,0.76,0.0216
-0.00638,0.76,0.0216
-0.00636,0.78,0.0212
-0.00634,0.8,0.0208
-0.00632,0.8,0.02
-0.0063,0.82,0.02
-0.00628,0.82,0.0196
-0.00626,0.84,0.0192
-0.00624,0.84,0.0188
-0.00622,0.86,0.0184
-0.0062,0.86,0.018
-0.00618,0.88,0.0176
-0.00616,0.88,0.0172
-0.00614,0.9,0.0168
-0.00612,0.9,0.0164
-0.0061,0.92,0.0156
-0.00608,0.92,0.0152
-0.00606,0.94,0.0152
-0.00604,0.94,0.0148
-0.00602,0.94,0.014
-0.006,0.96,0.0136
-0.00598,0.96,0.0132
-0.00596,0.96,0.0128
-0.00594,0.98,0.0124
-0.00592,0.98,0.012
-0.0059,1,0.0112
-0.00588,1,0.0108
-0.00586,1,0.0104
-0.00584,1,0.01
-0.00582,1.02,0.0096
-0.0058,1.02,0.0088
-0.00578,1.02,0.0084
-0.00576,1.02,0.008
-0.00574,1.02,0.0076
-0.00572,1.02,0.0072
-0.0057,1.02,0.0064
-0.00568,1.04,0.006
-0.00566,1.04,0.0056
-0.00564,1.04,0.0048
-0.00562,1.04,0.0044
-0.0056,1.04,0.004
-0.00558,1.04,0.0036
-0.00556,1.04,0.0032
-0.00554,1.04,0.0024
-0.00552,1.04,0.002
-0.0055,1.04,0.0016
-0.00548,1.04,0.0008
-0.00546,1.04,0.0004
-0.00544,1.04,0
-0.00542,1.04,-0.0004
-0.0054,1.04,-0.0012
-0.00538,1.04,-0.0016
-0.00536,1.04,-0.002
-0.00534,1.04,-0.0028
-0.00532,1.02,-0.0032
-0.0053,1.02,-0.0036
-0.00528,1.02,-0.004
-0.00526,1.02,-0.0048
-0.00524,1.02,-0.0052
-0.00522,1.02,-0.0056
-0.0052,1,-0.006
-0.00518,1,-0.0068
-0.00516,1,-0.0072
-0.00514,0.98,-0.0076
-0.00512,0.98,-0.008
-0.0051,0.98,-0.0084
-0.00508,0.96,-0.0092
-0.00506,0.96,-0.0096
-0.00504,0.96,-0.01
-0.00502,0.94,-0.0104
-0.005,0.94,-0.0108
-0.00498,0.94,-0.0112
-0.00496,0.92,-0.0116
-0.00494,0.92,-0.0124
-0.00492,0.92,-0.0124
-0.0049,0.9,-0.0132
-0.00488,0.9,-0.0136
-0.00486,0.88,-0.014
-0.00484,0.88,-0.0144
-0.00482,0.86,-0.0148
-0.0048,0.86,-0.0152
-0.00478,0.84,-0.0156
-0.00476,0.82,-0.016
-0.00474,0.82,-0.0164
-0.00472,0.8,-0.0168
-0.0047,0.8,-0.0172
-0.00468,0.78,-0.0176
-0.00466,0.76,-0.018
-0.00464,0.76,-0.0184
-0.00462,0.74,-0.0188
-0.0046,0.74,-0.0192
-0.00458,0.72,-0.0196
-0.00456,0.7,-0.02
-0.00454,0.7,-0.0204
-0.00452,0.68,-0.0204
-0.0045,0.66,-0.0212
-0.00448,0.64,-0.0212
-0.00446,0.64,-0.0216
-0.00444,0.62,-0.022
-0.00442,0.6,-0.0224
-0.0044,0.6,-0.0224
-0.00438,0.58,-0.0228
-0.00436,0.56,-0.0232
-0.00434,0.54,-0.0232
-0.00432,0.54,-0.0236
-0.0043,0.52,-0.024
-0.00428,0.5,-0.024
-0.00426,0.48,-0.0244
-0.00424,0.46,-0.0244
-0.00422,0.44,-0.0248
-0.0042,0.44,-0.0252
-0.00418,0.42,-0.0252
-0.00416,0.4,-0.0256
-0.00414,0.38,-0.0256
-0.00412,0.36,-0.026
-0.0041,0.34,-0.026
-0.00408,0.34,-0.0264
-0.00406,0.32,-0.0264
-0.00404,0.3,-0.0268
-0.00402,0.28,-0.0268
-0.004,0.26,-0.0268
-0.00398,0.24,-0.0268
-0.00396,0.24,-0.0272
-0.00394,0.22,-0.0272
-0.00392,0.2,-0.0272
-0.0039,0.18,-0.0272
-0.00388,0.16,-0.0276
-0.00386,0.14,-0.0276
-0.00384,0.12,-0.0276
-0.00382,0.1,-0.0276
-0.0038,0.08,-0.0276
-0.00378,0.06,-0.028
-0.00376,0.06,-0.028
-0.00374,0.04,-0.028
-0.00372,0.02,-0.028
-0.0037,0,-0.028
-0.00368,-0.02,-0.028
-0.00366,-0.04,-0.028
-0.00364,-0.06,-0.028
-0.00362,-0.08,-0.028
-0.0036,-0.1,-0.028
-0.00358,-0.12,-0.028
-0.00356,-0.12,-0.028
-0.00354,-0.14,-0.028
-0.00352,-0.16,-0.0276
-0.0035,-0.18,-0.0276
-0.00348,-0.2,-0.0272
-0.00346,-0.22,-0.0272
-0.00344,-0.24,-0.0272
-0.00342,-0.26,-0.0272
-0.0034,-0.26,-0.0268
-0.00338,-0.28,-0.0268
-0.00336,-0.3,-0.0268
-0.00334,-0.32,-0.0268
-0.00332,-0.34,-0.0264
-0.0033,-0.36,-0.0264
-0.00328,-0.36,-0.026
-0.00326,-0.38,-0.026
-0.00324,-0.4,-0.026
-0.00322,-0.42,-0.0256
-0.0032,-0.44,-0.0256
-0.00318,-0.46,-0.0252
-0.00316,-0.46,-0.0252
-0.00314,-0.48,-0.0248
-0.00312,-0.5,-0.0244
-0.0031,-0.52,-0.0244
-0.00308,-0.52,-0.024
-0.00306,-0.54,-0.0236
-0.00304,-0.56,-0.0232
-0.00302,-0.58,-0.0232
-0.003,-0.58,-0.0228
-0.00298,-0.6,-0.0228
-0.00296,-0.62,-0.0224
-0.00294,-0.62,-0.022
-0.00292,-0.64,-0.0216
-0.0029,-0.66,-0.0212
-0.00288,-0.68,-0.0212
-0.00286,-0.68,-0.0208
-0.00284,-0.7,-0.0204
-0.00282,-0.7,-0.02
-0.0028,-0.72,-0.0196
-0.00278,-0.72,-0.0192
-0.00276,-0.74,-0.0188
-0.00274,-0.76,-0.0188
-0.00272,-0.76,-0.0184
-0.0027,-0.78,-0.018
-0.00268,-0.8,-0.0176
-0.00266,-0.8,-0.0172
-0.00264,-0.82,-0.0168
-0.00262,-0.82,-0.0164
-0.0026,-0.84,-0.0156
-0.00258,-0.84,-0.0156
-0.00256,-0.84,-0.0152
-0.00254,-0.86,-0.0148
-0.00252,-0.86,-0.0144
-0.0025,-0.88,-0.014
-0.00248,-0.88,-0.0136
-0.00246,-0.9,-0.0128
-0.00244,-0.9,-0.0124
-0.00242,-0.9,-0.012
-0.0024,-0.92,-0.0112
-0.00238,-0.92,-0.0108
-0.00236,-0.92,-0.0104
-0.00234,-0.92,-0.01
-0.00232,-0.94,-0.0096
-0.0023,-0.94,-0.0092
-0.00228,-0.94,-0.0088
-0.00226,-0.96,-0.008
-0.00224,-0.96,-0.0076
-0.00222,-0.96,-0.0072
-0.0022,-0.96,-0.0068
-0.00218,-0.98,-0.006
-0.00216,-0.98,-0.0056
-0.00214,-0.98,-0.0052
-0.00212,-0.98,-0.0048
-0.0021,-0.98,-0.004
-0.00208,-0.98,-0.0036
-0.00206,-1,-0.0032
-0.00204,-1,-0.0028
-0.00202,-1,-0.002
-0.002,-1,-0.0016
-0.00198,-1,-0.0012
-0.00196,-1,-0.0008
-0.00194,-1,0
-0.00192,-1,0.0004
-0.0019,-1,0.0008
-0.00188,-1,0.0016
-0.00186,-1,0.002
-0.00184,-1,0.0024
-0.00182,-0.98,0.0028
-0.0018,-0.98,0.0036
-0.00178,-0.98,0.004
-0.00176,-0.98,0.0044
-0.00174,-0.98,0.0048
-0.00172,-0.98,0.0052
-0.0017,-0.98,0.006
-0.00168,-0.96,0.0064
-0.00166,-0.96,0.0068
-0.00164,-0.96,0.0076
-0.00162,-0.94,0.008
-0.0016,-0.94,0.0084
-0.00158,-0.94,0.0088
-0.00156,-0.94,0.0096
-0.00154,-0.92,0.0096
-0.00152,-0.92,0.0104
-0.0015,-0.92,0.0108
-0.00148,-0.92,0.0112
-0.00146,-0.9,0.0116
-0.00144,-0.9,0.012
-0.00142,-0.88,0.0128
-0.0014,-0.88,0.0132
-0.00138,-0.88,0.0136
-0.00136,-0.86,0.014
-0.00134,-0.86,0.0144
-0.00132,-0.84,0.0148
-0.0013,-0.84,0.0152
-0.00128,-0.82,0.0156
-0.00126,-0.82,0.016
-0.00124,-0.8,0.0164
-0.00122,-0.8,0.0168
-0.0012,-0.78,0.0176
-0.00118,-0.76,0.018
-0.00116,-0.76,0.0184
-0.00114,-0.74,0.0188
-0.00112,-0.74,0.0192
-0.0011,-0.72,0.0196
-0.00108,-0.72,0.0196
-0.00106,-0.7,0.02
-0.00104,-0.68,0.0204
-0.00102,-0.68,0.0212
-0.001,-0.66,0.0212
-0.00098,-0.64,0.0216
-0.00096,-0.64,0.022
-0.00094,-0.62,0.0224
-0.00092,-0.6,0.0228
-0.0009,-0.6,0.0228
-0.00088,-0.58,0.0232
-0.00086,-0.56,0.0236
-0.00084,-0.54,0.024
-0.00082,-0.52,0.024
-0.0008,-0.52,0.0244
-0.00078,-0.5,0.0248
-0.00076,-0.48,0.0248
-0.00074,-0.46,0.0252
-0.00072,-0.46,0.0252
-0.0007,-0.44,0.0256
-0.00068,-0.42,0.026
-0.00066,-0.4,0.0264
-0.00064,-0.4,0.0264
-0.00062,-0.38,0.0264
-0.0006,-0.36,0.0268
-0.00058,-0.34,0.0268
-0.00056,-0.32,0.0272
-0.00054,-0.3,0.0272
-0.00052,-0.28,0.0276
-0.0005,-0.28,0.0276
-0.00048,-0.26,0.028
-0.00046,-0.24,0.028
-0.00044,-0.22,0.0284
-0.00042,-0.2,0.0284
-0.0004,-0.18,0.0284
-0.00038,-0.16,0.0284
-0.00036,-0.14,0.0288
-0.00034,-0.14,0.0288
-0.00032,-0.12,0.0288
-0.0003,-0.1,0.0292
-0.00028,-0.08,0.0292
-0.00026,-0.06,0.0292
-0.00024,-0.04,0.0292
-0.00022,-0.02,0.0292
-0.0002,0,0.0292
-0.00018,0.02,0.0292
-0.00016,0.04,0.0292
-0.00014,0.04,0.0292
-0.00012,0.06,0.0292
-0.0001,0.08,0.0292
-0.00008,0.1,0.0292
-0.00006,0.12,0.0292
-0.00004,0.14,0.0292
-0.00002,0.16,0.0292
0,0.18,0.0292
0.00002,0.2,0.0292
0.00004,0.2,0.0288
0.00006,0.22,0.0288
0.00008,0.24,0.0288
0.0001,0.26,0.0288
0.00012,0.28,0.0288
0.00014,0.3,0.0284
0.00016,0.32,0.0284
0.00018,0.34,0.0284
0.0002,0.34,0.028
0.00022,0.36,0.028
0.00024,0.38,0.028
0.00026,0.4,0.028
0.00028,0.42,0.0276
0.0003,0.44,0.0276
0.00032,0.44,0.0272
0.00034,0.46,0.0272
0.00036,0.48,0.0268
0.00038,0.5,0.0268
0.0004,0.52,0.0264
0.00042,0.54,0.026
0.00044,0.54,0.026
0.00046,0.56,0.0256
0.00048,0.58,0.0256
0.0005,0.58,0.0256
0.00052,0.6,0.0252
0.00054,0.62,0.0248
0.00056,0.64,0.0244
0.00058,0.64,0.0244
0.0006,0.66,0.024
0.00062,0.68,0.0236
0.00064,0.7,0.0232
0.00066,0.7,0.0232
0.00068,0.72,0.0228
0.0007,0.72,0.0224
0.00072,0.74,0.022
0.00074,0.76,0.0216
0.00076,0.76,0.0216
0.00078,0.78,0.0212
0.0008,0.78,0.0208
0.00082,0.8,0.0204
0.00084,0.82,0.02
0.00086,0.82,0.0196
0.00088,0.84,0.0192
0.0009,0.84,0.0188
0.00092,0.86,0.0184
0.00094,0.86,0.018
0.00096,0.88,0.0176
0.00098,0.88,0.0172
0.001,0.9,0.0168
0.00102,0.92,0.0164
0.00104,0.92,0.016
0.00106,0.92,0.0156
0.00108,0.94,0.0148
0.0011,0.94,0.0148
0.00112,0.94,0.0144
0.00114,0.96,0.014
0.00116,0.96,0.0132
0.00118,0.96,0.0128
0.0012,0.98,0.0124
0.00122,0.98,0.012
0.00124,0.98,0.0116
0.00126,1,0.0108
0.00128,1,0.0104
0.0013,1,0.01
0.00132,1.02,0.0092
0.00134,1.02,0.0088
0.00136,1.02,0.0084
0.00138,1.02,0.008
0.0014,1.02,0.0076
0.00142,1.02,0.0068
0.00144,1.02,0.0064
0.00146,1.04,0.006
0.00148,1.04,0.0056
0.0015,1.04,0.0052
0.00152,1.04,0.0044
0.00154,1.04,0.004
0.00156,1.04,0.0036
0.00158,1.04,0.0032
0.0016,1.04,0.0024
0.00162,1.04,0.002
0.00164,1.04,0.0016
0.00166,1.04,0.0012
0.00168,1.04,0.0008
0.0017,1.04,0
0.00172,1.04,-0.0004
0.00174,1.04,-0.0012
0.00176,1.04,-0.0016
0.00178,1.04,-0.002
0.0018,1.02,-0.0024
0.00182,1.02,-0.0032
0.00184,1.02,-0.0036
0.00186,1.02,-0.0044
0.00188,1.02,-0.0048
0.0019,1.02,-0.0052
0.00192,1.02,-0.0056
0.00194,1,-0.006
0.00196,1,-0.0064
0.00198,1,-0.0072
0.002,1,-0.0076
0.00202,0.98,-0.008
0.00204,0.98,-0.0084
0.00206,0.96,-0.0088
0.00208,0.96,-0.0096
0.0021,0.96,-0.01
0.00212,0.94,-0.0104
0.00214,0.94,-0.0108
0.00216,0.94,-0.0112
0.00218,0.92,-0.0116
0.0022,0.92,-0.012
0.00222,0.92,-0.0124
0.00224,0.9,-0.0128
0.00226,0.9,-0.0136
0.00228,0.88,-0.014
0.0023,0.88,-0.0144
0.00232,0.86,-0.0148
0.00234,0.86,-0.0152
0.00236,0.84,-0.0156
0.00238,0.82,-0.016
0.0024,0.82,-0.0164
0.00242,0.8,-0.0168
0.00244,0.8,-0.0172
0.00246,0.78,-0.0176
0.00248,0.78,-0.018
0.0025,0.76,-0.0184
0.00252,0.74,-0.0188
0.00254,0.74,-0.0192
0.00256,0.72,-0.0196
0.00258,0.7,-0.02
0.0026,0.7,-0.02
0.00262,0.68,-0.0208
0.00264,0.66,-0.0208
0.00266,0.66,-0.0212
0.00268,0.64,-0.0216
0.0027,0.62,-0.022
0.00272,0.6,-0.0224
0.00274,0.6,-0.0228
0.00276,0.58,-0.0228
0.00278,0.56,-0.0228
0.0028,0.54,-0.0232
0.00282,0.54,-0.0236
0.00284,0.52,-0.024
0.00286,0.5,-0.024
0.00288,0.48,-0.0244
0.0029,0.46,-0.0244
0.00292,0.44,-0.0248
0.00294,0.44,-0.0252
0.00296,0.42,-0.0252
0.00298,0.4,-0.0256
0.003,0.38,-0.0256
0.00302,0.38,-0.026
0.00304,0.36,-0.026
0.00306,0.34,-0.0264
0.00308,0.32,-0.0264
0.0031,0.3,-0.0268
0.00312,0.28,-0.0268
0.00314,0.26,-0.0268
0.00316,0.24,-0.0268
0.00318,0.24,-0.0272
0.0032,0.22,-0.0272
0.00322,0.2,-0.0272
0.00324,0.18,-0.0272
0.00326,0.16,-0.0276
0.00328,0.14,-0.0276
0.0033,0.12,-0.0276
0.00332,0.1,-0.0276
0.00334,0.1,-0.028
0.00336,0.08,-0.028
0.00338,0.06,-0.028
0.0034,0.04,-0.028
0.00342,0.02,-0.028
0.00344,0,-0.028
0.00346,-0.02,-0.028
0.00348,-0.04,-0.028
0.0035,-0.04,-0.028
0.00352,-0.06,-0.028
0.00354,-0.08,-0.028
0.00356,-0.1,-0.0276
0.00358,-0.12,-0.0276
0.0036,-0.14,-0.0276
0.00362,-0.16,-0.0276
0.00364,-0.18,-0.0276
0.00366,-0.2,-0.0272
0.00368,-0.22,-0.0272
0.0037,-0.24,-0.0272
0.00372,-0.24,-0.0272
0.00374,-0.26,-0.0272
0.00376,-0.28,-0.0268
0.00378,-0.3,-0.0268
0.0038,-0.32,-0.0268
0.00382,-0.34,-0.0264
0.00384,-0.34,-0.0264
0.00386,-0.36,-0.0264
0.00388,-0.38,-0.026
0.0039,-0.4,-0.026
0.00392,-0.42,-0.026
0.00394,-0.44,-0.0256
0.00396,-0.44,-0.0252
0.00398,-0.46,-0.0248
0.004,-0.48,-0.0248
0.00402,-0.5,-0.0244
0.00404,-0.52,-0.0244
0.00406,-0.52,-0.024
0.00408,-0.54,-0.0236
0.0041,-0.56,-0.0236
0.00412,-0.58,-0.0232
0.00414,-0.58,-0.0228
0.00416,-0.6,-0.0228
0.00418,-0.62,-0.0224
0.0042,-0.62,-0.022
0.00422,-0.64,-0.0216
0.00424,-0.66,-0.0216
0.00426,-0.68,-0.0212
0.00428,-0.68,-0.0208
0.0043,-0.7,-0.0204
0.00432,-0.7,-0.02
0.00434,-0.72,-0.02
0.00436,-0.72,-0.0192
0.00438,-0.74,-0.0188
0.0044,-0.76,-0.0188
0.00442,-0.76,-0.0184
0.00444,-0.78,-0.018
0.00446,-0.78,-0.0176
0.00448,-0.8,-0.0172
0.0045,-0.82,-0.0168
0.00452,-0.82,-0.0164
0.00454,-0.82,-0.016
0.00456,-0.84,-0.0156
0.00458,-0.84,-0.0152
0.0046,-0.86,-0.0148
0.00462,-0.86,-0.0144
0.00464,-0.88,-0.014
0.00466,-0.88,-0.0132
0.00468,-0.9,-0.0128
0.0047,-0.9,-0.0124
0.00472,-0.9,-0.012
0.00474,-0.92,-0.0116
0.00476,-0.92,-0.0112
0.00478,-0.92,-0.0108
0.0048,-0.92,-0.0104
0.00482,-0.94,-0.0096
0.00484,-0.94,-0.0092
0.00486,-0.94,-0.0088
0.00488,-0.96,-0.0084
0.0049,-0.96,-0.0076
0.00492,-0.96,-0.0072
0.00494,-0.96,-0.0068
0.00496,-0.98,-0.0064
0.00498,-0.98,-0.006
0.005,-0.98,-0.0052
0.00502,-0.98,-0.0048
0.00504,-0.98,-0.0044
0.00506,-1,-0.004
0.00508,-1,-0.0032
0.0051,-1,-0.0028
0.00512,-1,-0.002
0.00514,-1,-0.0016
0.00516,-1,-0.0012
0.00518,-1,-0.0004
0.0052,-1,0
0.00522,-1,0.0004
0.00524,-1,0.0008
0.00526,-1,0.0012
0.00528,-1,0.002
0.0053,-1,0.0024
0.00532,-0.98,0.0028
0.00534,-0.98,0.0032
0.00536,-0.98,0.004
0.00538,-0.98,0.0044
0.0054,-0.98,0.0048
0.00542,-0.98,0.0052
0.00544,-0.96,0.006
0.00546,-0.96,0.0064
0.00548,-0.96,0.0068
0.0055,-0.96,0.0072
0.00552,-0.94,0.008
0.00554,-0.94,0.0084
0.00556,-0.94,0.0088
0.00558,-0.92,0.0092
0.0056,-0.92,0.0096
0.00562,-0.92,0.0104
0.00564,-0.92,0.0108
0.00566,-0.9,0.0112
0.00568,-0.9,0.0116
0.0057,-0.9,0.012
0.00572,-0.9,0.0128
0.00574,-0.88,0.0132
0.00576,-0.88,0.0136
0.00578,-0.86,0.014
0.0058,-0.86,0.0144
0.00582,-0.84,0.0148
0.00584,-0.84,0.0152
0.00586,-0.82,0.0156
0.00588,-0.82,0.016
0.0059,-0.8,0.0164
0.00592,-0.8,0.0168
0.00594,-0.78,0.0172
0.00596,-0.78,0.0176
0.00598,-0.76,0.0184
0.006,-0.74,0.0188
0.00602,-0.74,0.0188
0.00604,-0.72,0.0192
0.00606,-0.72,0.0196
0.00608,-0.7,0.02
0.0061,-0.7,0.0204
0.00612,-0.68,0.0208
0.00614,-0.66,0.0212
0.00616,-0.64,0.0216
0.00618,-0.64,0.022
0.0062,-0.62,0.0224
0.00622,-0.6,0.0224
0.00624,-0.6,0.0228
0.00626,-0.58,0.0232
0.00628,-0.56,0.0236
0.0063,-0.54,0.0236
0.00632,-0.52,0.024
0.00634,-0.52,0.0244
0.00636,-0.5,0.0248
0.00638,-0.5,0.0248
0.0064,-0.48,0.0252
0.00642,-0.46,0.0252
0.00644,-0.44,0.0256
0.00646,-0.42,0.026
0.00648,-0.42,0.026
0.0065,-0.4,0.0264
0.00652,-0.38,0.0264
0.00654,-0.36,0.0264
0.00656,-0.34,0.0268
0.00658,-0.34,0.0272
0.0066,-0.32,0.0272
0.00662,-0.3,0.0276
0.00664,-0.28,0.0276
0.00666,-0.26,0.028
0.00668,-0.24,0.028
0.0067,-0.22,0.0284
0.00672,-0.2,0.0284
0.00674,-0.18,0.0284
0.00676,-0.16,0.0284
0.00678,-0.16,0.0288
0.0068,-0.14,0.0288
0.00682,-0.12,0.0288
0.00684,-0.1,0.0288
0.00686,-0.08,0.0288
0.00688,-0.06,0.0292
0.0069,-0.04,0.0292
0.00692,-0.02,0.0292
0.00694,0,0.0292
0.00696,0.02,0.0292
0.00698,0.02,0.0292
0.007,0.04,0.0292
0.00702,0.06,0.0292
0.00704,0.08,0.0292
0.00706,0.1,0.0292
0.00708,0.12,0.0292
0.0071,0.14,0.0292
0.00712,0.14,0.0292
0.00714,0.18,0.0292
0.00716,0.18,0.0292
0.00718,0.2,0.0288
0.0072,0.22,0.0288
0.00722,0.24,0.0288
0.00724,0.26,0.0288
0.00726,0.28,0.0288
0.00728,0.3,0.0288
0.0073,0.32,0.0284
0.00732,0.34,0.0284
0.00734,0.34,0.0284
0.00736,0.36,0.028
0.00738,0.38,0.028
0.0074,0.4,0.0276
0.00742,0.42,0.0276
0.00744,0.44,0.0276
0.00746,0.44,0.0272
0.00748,0.46,0.0272
0.0075,0.48,0.0268
0.00752,0.5,0.0264
0.00754,0.52,0.0264
0.00756,0.52,0.0264
0.00758,0.54,0.026
0.0076,0.56,0.026
0.00762,0.58,0.0256
0.00764,0.58,0.0256
0.00766,0.6,0.0252
0.00768,0.62,0.0248
0.0077,0.64,0.0248
0.00772,0.64,0.0244
0.00774,0.66,0.024
0.00776,0.68,0.0236
0.00778,0.68,0.0236
0.0078,0.7,0.0232
0.00782,0.72,0.0228
0.00784,0.72,0.0224
0.00786,0.74,0.022
0.00788,0.76,0.022
0.0079,0.76,0.0216
0.00792,0.78,0.0212
0.00794,0.78,0.0208
0.00796,0.8,0.0204
0.00798,0.82,0.02
0.008,0.82,0.0196
0.00802,0.84,0.0192
0.00804,0.84,0.0188
0.00806,0.86,0.0184
0.00808,0.86,0.018
0.0081,0.88,0.018
0.00812,0.88,0.0172
0.00814,0.9,0.0168
0.00816,0.9,0.0164
0.00818,0.92,0.016
0.0082,0.92,0.0156
0.00822,0.94,0.0152
0.00824,0.94,0.0148
0.00826,0.94,0.0144
0.00828,0.96,0.0136
0.0083,0.96,0.0136
0.00832,0.96,0.0128
0.00834,0.98,0.0124
0.00836,0.98,0.012
0.00838,0.98,0.0116
0.0084,1,0.0112
0.00842,1,0.0104
0.00844,1,0.01
0.00846,1.02,0.0096
0.00848,1.02,0.0092
0.0085,1.02,0.0084
0.00852,1.02,0.008
0.00854,1.02,0.0076
0.00856,1.02,0.0072
0.00858,1.02,0.0068
0.0086,1.02,0.006
0.00862,1.04,0.0056
0.00864,1.04,0.0052
0.00866,1.04,0.0048
0.00868,1.04,0.004
0.0087,1.04,0.0036
0.00872,1.04,0.0032
0.00874,1.04,0.0028
0.00876,1.04,0.002
0.00878,1.04,0.0016
0.0088,1.04,0.0012
0.00882,1.04,0.0008
0.00884,1.04,0.0004
0.00886,1.04,-0.0004
0.00888,1.04,-0.0008
0.0089,1.04,-0.0016
0.00892,1.04,-0.002
0.00894,1.04,-0.0024
0.00896,1.02,-0.0028
0.00898,1.02,-0.0036
0.009,1.02,-0.004
0.00902,1.02,-0.0044
0.00904,1.02,-0.0048
0.00906,1.02,-0.0056
0.00908,1,-0.006
0.0091,1,-0.0064
0.00912,1,-0.0068
0.00914,1,-0.0072
0.00916,0.98,-0.008
0.00918,0.98,-0.0084
0.0092,0.96,-0.0088
0.00922,0.96,-0.0092
0.00924,0.96,-0.01
0.00926,0.94,-0.0104
0.00928,0.94,-0.0108
0.0093,0.94,-0.0112
0.00932,0.92,-0.0116
0.00934,0.92,-0.012
0.00936,0.92,-0.0124
0.00938,0.9,-0.0132
0.0094,0.9,-0.0136
0.00942,0.88,-0.014
0.00944,0.88,-0.0144
0.00946,0.86,-0.0148
0.00948,0.86,-0.0152
0.0095,0.84,-0.0156
0.00952,0.82,-0.016
0.00954,0.82,-0.0164
0.00956,0.8,-0.0168
0.00958,0.8,-0.0172
0.0096,0.78,-0.0176
0.00962,0.78,-0.018
0.00964,0.76,-0.0184
0.00966,0.74,-0.0188
0.00968,0.74,-0.0192
0.0097,0.72,-0.0192
0.00972,0.72,-0.0196
0.00974,0.7,-0.02
0.00976,0.68,-0.0204
0.00978,0.66,-0.0208
0.0098,0.66,-0.0212
0.00982,0.64,-0.0216
0.00984,0.62,-0.022
0.00986,0.62,-0.0224
0.00988,0.6,-0.0224
0.0099,0.58,-0.0228
0.00992,0.56,-0.0232
0.00994,0.54,-0.0232
0.00996,0.54,-0.0236
0.00998,0.52,-0.0236
0.01,0.5,-0.024
0.01002,0.48,-0.0244
0.01004,0.46,-0.0244
0.01006,0.46,-0.0248
0.01008,0.44,-0.0248
0.0101,0.42,-0.0252
0.01012,0.4,-0.0256
0.01014,0.38,-0.0256
0.01016,0.38,-0.026
0.01018,0.36,-0.026
0.0102,0.34,-0.0264
0.01022,0.32,-0.0264
0.01024,0.3,-0.0264
0.01026,0.28,-0.0268
0.01028,0.26,-0.0268
0.0103,0.26,-0.0268
0.01032,0.24,-0.0272
0.01034,0.22,-0.0272
0.01036,0.2,-0.0272
0.01038,0.18,-0.0272
0.0104,0.16,-0.0276
0.01042,0.14,-0.0276
0.01044,0.14,-0.0276
0.01046,0.12,-0.0276
0.01048,0.1,-0.0276
0.0105,0.08,-0.0276
0.01052,0.06,-0.0276
0.01054,0.04,-0.028
0.01056,0.02,-0.028
0.01058,0,-0.028
0.0106,-0.02,-0.028
0.01062,-0.04,-0.028
0.01064,-0.04,-0.028
0.01066,-0.06,-0.028
0.01068,-0.08,-0.028
0.0107,-0.1,-0.0276
0.01072,-0.12,-0.0276
0.01074,-0.14,-0.028
0.01076,-0.16,-0.0276
0.01078,-0.18,-0.0276
0.0108,-0.2,-0.0276
0.01082,-0.22,-0.0272
0.01084,-0.22,-0.0272
0.01086,-0.24,-0.0272
0.01088,-0.26,-0.0272
0.0109,-0.28,-0.0268
0.01092,-0.3,-0.0268
0.01094,-0.32,-0.0268
0.01096,-0.34,-0.0264
0.01098,-0.34,-0.0264
0.011,-0.36,-0.0264
0.01102,-0.38,-0.026
0.01104,-0.4,-0.026
0.01106,-0.42,-0.0256
0.01108,-0.42,-0.0256
0.0111,-0.44,-0.0252
0.01112,-0.46,-0.0252
0.01114,-0.48,-0.0248
0.01116,-0.5,-0.0244
0.01118,-0.52,-0.0244
0.0112,-0.52,-0.024
0.01122,-0.54,-0.0236
0.01124,-0.56,-0.0236
0.01126,-0.56,-0.0232
0.01128,-0.58,-0.0228
0.0113,-0.6,-0.0228
0.01132,-0.62,-0.0224
0.01134,-0.62,-0.022
0.01136,-0.64,-0.0216
0.01138,-0.64,-0.0212
0.0114,-0.66,-0.0212
0.01142,-0.68,-0.0208
0.01144,-0.7,-0.0204
0.01146,-0.7,-0.02
0.01148,-0.72,-0.02
0.0115,-0.72,-0.0196
0.01152,-0.74,-0.0192
0.01154,-0.74,-0.0188
0.01156,-0.76,-0.0184
0.01158,-0.78,-0.018
0.0116,-0.78,-0.0176
0.01162,-0.8,-0.0172
0.01164,-0.8,-0.0168
0.01166,-0.82,-0.0164
0.01168,-0.82,-0.016
0.0117,-0.84,-0.0156
0.01172,-0.84,-0.0152
0.01174,-0.86,-0.0148
0.01176,-0.86,-0.0144
0.01178,-0.88,-0.014
0.0118,-0.88,-0.0132
0.01182,-0.88,-0.0132
0.01184,-0.9,-0.0124
0.01186,-0.9,-0.012
0.01188,-0.92,-0.0116
0.0119,-0.92,-0.0112
0.01192,-0.92,-0.0108
0.01194,-0.92,-0.01
0.01196,-0.94,-0.0096
0.01198,-0.94,-0.0092
0.012,-0.94,-0.0088
0.01202,-0.96,-0.0084
0.01204,-0.96,-0.0076
0.01206,-0.96,-0.0072
0.01208,-0.96,-0.0068
0.0121,-0.98,-0.0064
0.01212,-0.98,-0.006
0.01214,-0.98,-0.0052
0.01216,-0.98,-0.0048
0.01218,-0.98,-0.0044
0.0122,-1,-0.0036
0.01222,-1,-0.0032
0.01224,-1,-0.0028
0.01226,-1,-0.0024
0.01228,-1,-0.0016
0.0123,-1,-0.0012
0.01232,-1,-0.0008
0.01234,-1,-0.0004
0.01236,-1,0.0004
0.01238,-1,0.0008
0.0124,-1,0.0012
0.01242,-1,0.0016
0.01244,-0.98,0.0024
0.01246,-0.98,0.0028
0.01248,-0.98,0.0032
0.0125,-0.98,0.0036
0.01252,-0.98,0.0044
0.01254,-0.98,0.0048
0.01256,-0.98,0.0052
0.01258,-0.98,0.0056
0.0126,-0.96,0.0064
0.01262,-0.96,0.0068
0.01264,-0.96,0.0072
0.01266,-0.94,0.008
0.01268,-0.94,0.0084
0.0127,-0.94,0.0088
0.01272,-0.94,0.0092
0.01274,-0.92,0.0096
0.01276,-0.92,0.0104
0.01278,-0.92,0.0108
0.0128,-0.92,0.0112
0.01282,-0.9,0.0116
0.01284,-0.9,0.012
0.01286,-0.9,0.0124
0.01288,-0.88,0.0128
0.0129,-0.88,0.0136
0.01292,-0.86,0.014
0.01294,-0.86,0.0144
0.01296,-0.84,0.0148
0.01298,-0.84,0.0152
0.013,-0.82,0.0156
0.01302,-0.82,0.016
0.01304,-0.8,0.0164
0.01306,-0.8,0.0168
0.01308,-0.78,0.0172
0.0131,-0.78,0.0176
0.01312,-0.76,0.0184
0.01314,-0.74,0.0184
0.01316,-0.74,0.0188
0.01318,-0.72,0.0192
0.0132,-0.72,0.0196
0.01322,-0.7,0.02
0.01324,-0.7,0.0204
0.01326,-0.68,0.0208
0.01328,-0.66,0.0212
0.0133,-0.64,0.0216
0.01332,-0.64,0.022
0.01334,-0.62,0.022
0.01336,-0.6,0.0228
0.01338,-0.6,0.0228
0.0134,-0.58,0.0232
0.01342,-0.56,0.0232
0.01344,-0.54,0.024
0.01346,-0.54,0.024
0.01348,-0.52,0.0244
0.0135,-0.5,0.0248
0.01352,-0.5,0.0248
0.01354,-0.48,0.0252
0.01356,-0.46,0.0252
0.01358,-0.44,0.0256
0.0136,-0.42,0.026
0.01362,-0.42,0.026
0.01364,-0.4,0.0264
0.01366,-0.38,0.0264
0.01368,-0.36,0.0264
0.0137,-0.34,0.0268
0.01372,-0.34,0.0272
0.01374,-0.32,0.0272
0.01376,-0.3,0.0276
0.01378,-0.28,0.0276
0.0138,-0.26,0.0276
0.01382,-0.24,0.028
0.01384,-0.22,0.028
0.01386,-0.22,0.0284
0.01388,-0.2,0.0284
0.0139,-0.18,0.0284
0.01392,-0.16,0.0288
0.01394,-0.14,0.0288
0.01396,-0.12,0.0288
0.01398,-0.1,0.0292
0.014,-0.08,0.0292
0.01402,-0.06,0.0292
0.01404,-0.04,0.0292
0.01406,-0.02,0.0292
0.01408,0,0.0292
0.0141,0,0.0292
0.01412,0.02,0.0292
0.01414,0.04,0.0292
0.01416,0.06,0.0292
0.01418,0.08,0.0292
0.0142,0.1,0.0292
0.01422,0.12,0.0292
0.01424,0.14,0.0292
0.01426,0.14,0.0292
0.01428,0.16,0.0292
0.0143,0.18,0.0292
0.01432,0.2,0.0288
0.01434,0.22,0.0288
0.01436,0.24,0.0288
0.01438,0.26,0.0288
0.0144,0.28,0.0288
0.01442,0.3,0.0284
0.01444,0.32,0.0284
0.01446,0.32,0.0284
0.01448,0.34,0.0284
0.0145,0.36,0.028
0.01452,0.38,0.028
0.01454,0.4,0.0276
0.01456,0.4,0.0276
0.01458,0.42,0.0276
0.0146,0.44,0.0272
0.01462,0.46,0.0272
0.01464,0.48,0.0268
0.01466,0.5,0.0264
0.01468,0.5,0.0264
0.0147,0.52,0.0264
0.01472,0.54,0.026
0.01474,0.56,0.026
0.01476,0.56,0.0256
0.01478,0.58,0.0256
0.0148,0.6,0.0252
0.01482,0.62,0.0252
0.01484,0.64,0.0248
0.01486,0.64,0.0244
0.01488,0.66,0.024
0.0149,0.68,0.024
0.01492,0.68,0.0236
0.01494,0.7,0.0232
0.01496,0.72,0.0228
0.01498,0.72,0.0228
0.015,0.74,0.0224
0.01502,0.76,0.022
0.01504,0.76,0.0216
0.01506,0.78,0.0212
0.01508,0.78,0.0208
0.0151,0.8,0.0204
0.01512,0.82,0.02
0.01514,0.82,0.0196
0.01516,0.82,0.0192
0.01518,0.84,0.0188
0.0152,0.86,0.0184
0.01522,0.86,0.018
0.01524,0.88,0.018
0.01526,0.88,0.0172
0.01528,0.9,0.0168
0.0153,0.9,0.0164
0.01532,0.92,0.016
0.01534,0.92,0.0156
0.01536,0.92,0.0152
0.01538,0.94,0.0148
0.0154,0.94,0.0144
0.01542,0.96,0.014
0.01544,0.96,0.0136
0.01546,0.96,0.0128
0.01548,0.98,0.0124
0.0155,0.98,0.012
0.01552,0.98,0.0116
0.01554,1,0.0112
0.01556,1,0.0104
0.01558,1,0.01
0.0156,1,0.0096
0.01562,1.02,0.0092
0.01564,1.02,0.0084
0.01566,1.02,0.008
0.01568,1.02,0.0076
0.0157,1.02,0.0072
0.01572,1.02,0.0068
0.01574,1.02,0.0064
0.01576,1.04,0.0056
0.01578,1.04,0.0052
0.0158,1.04,0.0048
0.01582,1.04,0.0044
0.01584,1.04,0.0036
0.01586,1.04,0.0032
0.01588,1.04,0.0028
0.0159,1.04,0.002
0.01592,1.04,0.0016
0.01594,1.04,0.0012
0.01596,1.04,0.0008
0.01598,1.04,0.0004
0.016,1.04,-0.0004
0.01602,1.04,-0.0008
0.01604,1.04,-0.0016
0.01606,1.04,-0.002
0.01608,1.04,-0.0024
0.0161,1.02,-0.0028
0.01612,1.02,-0.0032
0.01614,1.02,-0.004
0.01616,1.02,-0.0044
0.01618,1.02,-0.0052
0.0162,1.02,-0.0056
0.01622,1,-0.006
0.01624,1,-0.0064
0.01626,1,-0.0068
0.01628,1,-0.0072
0.0163,0.98,-0.008
0.01632,0.98,-0.0084
0.01634,0.96,-0.0088
0.01636,0.96,-0.0092
0.01638,0.96,-0.0096
0.0164,0.94,-0.0104
0.01642,0.94,-0.0108
0.01644,0.94,-0.0112
0.01646,0.92,-0.0116
0.01648,0.92,-0.012
0.0165,0.92,-0.0124
0.01652,0.9,-0.0128
0.01654,0.9,-0.0132
0.01656,0.88,-0.014
0.01658,0.88,-0.0144
0.0166,0.86,-0.0148
0.01662,0.86,-0.0152
0.01664,0.84,-0.0156
0.01666,0.82,-0.016
0.01668,0.82,-0.0164
0.0167,0.82,-0.0168
0.01672,0.8,-0.0172
0.01674,0.78,-0.0172
0.01676,0.78,-0.018
0.01678,0.76,-0.0184
0.0168,0.74,-0.0188
0.01682,0.74,-0.0192
0.01684,0.72,-0.0192
0.01686,0.72,-0.0196
0.01688,0.7,-0.02
0.0169,0.68,-0.0204
0.01692,0.68,-0.0208
0.01694,0.66,-0.0212
0.01696,0.64,-0.0216
0.01698,0.62,-0.022
0.017,0.62,-0.022
0.01702,0.6,-0.0224
0.01704,0.58,-0.0228
0.01706,0.56,-0.0228
0.01708,0.56,-0.0232
0.0171,0.54,-0.0232
0.01712,0.52,-0.0236
0.01714,0.5,-0.024
0.01716,0.48,-0.0244
0.01718,0.48,-0.0244
0.0172,0.46,-0.0248
0.01722,0.44,-0.0248
0.01724,0.42,-0.0252
0.01726,0.4,-0.0252
0.01728,0.38,-0.0256
0.0173,0.38,-0.026
0.01732,0.36,-0.026
0.01734,0.34,-0.026
0.01736,0.32,-0.0264
0.01738,0.32,-0.0264
0.0174,0.3,-0.0268
0.01742,0.28,-0.0268
0.01744,0.26,-0.0268
0.01746,0.24,-0.0272
0.01748,0.22,-0.0272
0.0175,0.2,-0.0272
0.01752,0.18,-0.0272
0.01754,0.16,-0.0276
0.01756,0.14,-0.0276
0.01758,0.14,-0.0276
0.0176,0.12,-0.0276
0.01762,0.1,-0.0276
0.01764,0.08,-0.0276
0.01766,0.06,-0.0276
0.01768,0.04,-0.028
0.0177,0.02,-0.028
0.01772,0.02,-0.028
0.01774,0,-0.028
0.01776,-0.02,-0.028
0.01778,-0.04,-0.028
0.0178,-0.06,-0.028
0.01782,-0.08,-0.028
0.01784,-0.1,-0.028
0.01786,-0.12,-0.028
0.01788,-0.14,-0.028
0.0179,-0.16,-0.0276
0.01792,-0.18,-0.0276
0.01794,-0.2,-0.0276
0.01796,-0.2,-0.0272
0.01798,-0.22,-0.0272
0.018,-0.24,-0.0272
0.01802,-0.26,-0.0272
0.01804,-0.28,-0.0268
0.01806,-0.3,-0.0268
0.01808,-0.32,-0.0268
0.0181,-0.34,-0.0264
0.01812,-0.34,-0.0264
0.01814,-0.36,-0.026
0.01816,-0.38,-0.026
0.01818,-0.4,-0.026
0.0182,-0.42,-0.026
0.01822,-0.42,-0.0256
0.01824,-0.44,-0.0252
0.01826,-0.46,-0.0252
0.01828,-0.48,-0.0248
0.0183,-0.5,-0.0244
0.01832,-0.52,-0.0244
0.01834,-0.52,-0.024
0.01836,-0.54,-0.0236
0.01838,-0.54,-0.0236
0.0184,-0.56,-0.0232
0.01842,-0.58,-0.0232
0.01844,-0.6,-0.0228
0.01846,-0.62,-0.0224
0.01848,-0.62,-0.0224
0.0185,-0.64,-0.022
0.01852,-0.64,-0.0216
0.01854,-0.66,-0.0212
0.01856,-0.68,-0.0208
0.01858,-0.7,-0.0208
0.0186,-0.7,-0.0204
0.01862,-0.72,-0.02
0.01864,-0.72,-0.0196
0.01866,-0.74,-0.0192
0.01868,-0.74,-0.0188
0.0187,-0.76,-0.0184
0.01872,-0.78,-0.018
0.01874,-0.78,-0.0176
0.01876,-0.8,-0.0172
0.01878,-0.8,-0.0168
0.0188,-0.82,-0.0164
0.01882,-0.82,-0.016
0.01884,-0.84,-0.0156
0.01886,-0.84,-0.0152
0.01888,-0.86,-0.0148
0.0189,-0.86,-0.0144
0.01892,-0.88,-0.014
0.01894,-0.88,-0.0136
0.01896,-0.88,-0.0132
0.01898,-0.9,-0.0124
0.019,-0.9,-0.012
0.01902,-0.92,-0.0116
0.01904,-0.92,-0.0112
0.01906,-0.92,-0.0108
0.01908,-0.92,-0.0104
0.0191,-0.94,-0.01
0.01912,-0.94,-0.0092
0.01914,-0.94,-0.0088
0.01916,-0.96,-0.0084
0.01918,-0.96,-0.008
0.0192,-0.96,-0.0076
0.01922,-0.96,-0.0068
0.01924,-0.96,-0.0064
0.01926,-0.98,-0.006
0.01928,-0.98,-0.0056
0.0193,-0.98,-0.0048
0.01932,-0.98,-0.0044
0.01934,-0.98,-0.004
0.01936,-0.98,-0.0032
0.01938,-1,-0.0028
0.0194,-1,-0.0024
0.01942,-1,-0.0016
0.01944,-1,-0.0012
0.01946,-1,-0.0008
0.01948,-1,-0.0004
0.0195,-1,0.0004
0.01952,-1,0.0008
0.01954,-1,0.0012
0.01956,-1,0.0016
0.01958,-1,0.0024
0.0196,-0.98,0.0028
0.01962,-0.98,0.0032
0.01964,-0.98,0.0036
0.01966,-0.98,0.0044
0.01968,-0.98,0.0048
0.0197,-0.98,0.0052
0.01972,-0.98,0.006
0.01974,-0.96,0.0064
0.01976,-0.96,0.0068
0.01978,-0.96,0.0072
0.0198,-0.96,0.0076
0.01982,-0.94,0.008
0.01984,-0.94,0.0088
0.01986,-0.94,0.0092
0.01988,-0.92,0.0096
0.0199,-0.92,0.01
0.01992,-0.92,0.0104
0.01994,-0.92,0.0112
0.01996,-0.9,0.0116
0.01998,-0.9,0.012
0.02,-0.9,0.0124
0.02002,-0.88,0.0128
0.02004,-0.88,0.0136
0.02006,-0.86,0.014
0.02008,-0.86,0.0144
0.0201,-0.84,0.0148
0.02012,-0.84,0.0152
0.02014,-0.82,0.0156
0.02016,-0.82,0.016
0.02018,-0.8,0.0164
0.0202,-0.8,0.0168
0.02022,-0.78,0.0172
0.02024,-0.78,0.0176
0.02026,-0.76,0.0184
0.02028,-0.76,0.0184
0.0203,-0.74,0.0188
0.02032,-0.72,0.0192
0.02034,-0.72,0.0196
0.02036,-0.7,0.02
0.02038,-0.7,0.0204
0.0204,-0.68,0.0208
0.02042,-0.66,0.0212
0.02044,-0.66,0.0216
0.02046,-0.64,0.022
0.02048,-0.62,0.022
0.0205,-0.62,0.0224
0.02052,-0.6,0.0228
0.02054,-0.58,0.0232
0.02056,-0.56,0.0232
0.02058,-0.56,0.0236
0.0206,-0.54,0.024
0.02062,-0.52,0.0244
0.02064,-0.52,0.0244
0.02066,-0.5,0.0248
0.02068,-0.48,0.0252
0.0207,-0.46,0.0252
0.02072,-0.44,0.0256
0.02074,-0.42,0.0256
0.02076,-0.42,0.026
0.02078,-0.4,0.0264
0.0208,-0.38,0.0264
0.02082,-0.36,0.0264
0.02084,-0.34,0.0268
0.02086,-0.34,0.0272
0.02088,-0.32,0.0272
0.0209,-0.3,0.0276
0.02092,-0.28,0.0276
0.02094,-0.26,0.0276
0.02096,-0.24,0.028
0.02098,-0.24,0.028
0.021,-0.22,0.0284
0.02102,-0.2,0.0284
0.02104,-0.18,0.0284
0.02106,-0.16,0.0284
0.02108,-0.14,0.0288
0.0211,-0.12,0.0288
0.02112,-0.1,0.0288
0.02114,-0.08,0.0288
0.02116,-0.06,0.0288
0.02118,-0.04,0.0292
0.0212,-0.04,0.0292
0.02122,0,0.0292
0.02124,0,0.0292
0.02126,0.02,0.0292
0.02128,0.04,0.0292
0.0213,0.06,0.0292
0.02132,0.08,0.0292
0.02134,0.1,0.0292
0.02136,0.12,0.0292
0.02138,0.14,0.0292
0.0214,0.14,0.0292
0.02142,0.16,0.0292
0.02144,0.18,0.0292
0.02146,0.2,0.0288
0.02148,0.22,0.0288
0.0215,0.24,0.0288
0.02152,0.26,0.0288
0.02154,0.26,0.0288
0.02156,0.28,0.0284
0.02158,0.3,0.0284
0.0216,0.32,0.0284
0.02162,0.34,0.0284
0.02164,0.36,0.028
0.02166,0.38,0.028
0.02168,0.38,0.0276
0.0217,0.4,0.0276
0.02172,0.42,0.0276
0.02174,0.44,0.0272
0.02176,0.46,0.0272
0.02178,0.48,0.0268
0.0218,0.5,0.0268
0.02182,0.5,0.0264
0.02184,0.52,0.0264
0.02186,0.54,0.026
0.02188,0.56,0.026
0.0219,0.56,0.0256
0.02192,0.58,0.0256
0.02194,0.6,0.0252
0.02196,0.62,0.0252
0.02198,0.64,0.0248
0.022,0.64,0.0244
0.02202,0.66,0.024
0.02204,0.68,0.0236
0.02206,0.68,0.0236
0.02208,0.7,0.0232
0.0221,0.72,0.0228
0.02212,0.72,0.0228
0.02214,0.74,0.0224
0.02216,0.74,0.022
0.02218,0.76,0.0216
0.0222,0.78,0.0212
0.02222,0.78,0.0208
0.02224,0.8,0.0204
0.02226,0.8,0.02
0.02228,0.82,0.0196
0.0223,0.82,0.0192
0.02232,0.84,0.0188
0.02234,0.86,0.0184
0.02236,0.86,0.0184
0.02238,0.88,0.0176
0.0224,0.88,0.0176
0.02242,0.9,0.0168
0.02244,0.9,0.0164
0.02246,0.92,0.016
0.02248,0.92,0.0156
0.0225,0.92,0.0152
0.02252,0.94,0.0148
0.02254,0.94,0.0144
0.02256,0.94,0.014
0.02258,0.96,0.0136
0.0226,0.96,0.0132
0.02262,0.98,0.0128
0.02264,0.98,0.012
0.02266,0.98,0.0116
0.02268,1,0.0112
0.0227,1,0.0108
0.02272,1,0.01
0.02274,1,0.0096
0.02276,1.02,0.0092
0.02278,1.02,0.0088
0.0228,1.02,0.0084
0.02282,1.02,0.0076
0.02284,1.02,0.0072
0.02286,1.02,0.0068
0.02288,1.02,0.0064
0.0229,1.04,0.006
0.02292,1.04,0.0052
0.02294,1.04,0.0048
0.02296,1.04,0.0044
0.02298,1.04,0.004
0.023,1.04,0.0032
0.02302,1.04,0.0028
0.02304,1.04,0.0024
0.02306,1.04,0.0016
0.02308,1.04,0.0012
0.0231,1.04,0.0008
0.02312,1.04,0
0.02314,1.04,-0.0004
0.02316,1.04,-0.0008
0.02318,1.04,-0.0012
0.0232,1.04,-0.0016
0.02322,1.04,-0.0024
0.02324,1.02,-0.0028
0.02326,1.02,-0.0032
0.02328,1.02,-0.004
0.0233,1.02,-0.0044
0.02332,1.02,-0.0048
0.02334,1.02,-0.0056
0.02336,1.02,-0.006
0.02338,1,-0.0064
0.0234,1,-0.0068
0.02342,1,-0.0072
0.02344,0.98,-0.0076
0.02346,0.98,-0.008
0.02348,0.98,-0.0088
0.0235,0.96,-0.0092
0.02352,0.96,-0.0096
0.02354,0.94,-0.01
0.02356,0.94,-0.0108
0.02358,0.94,-0.0112
0.0236,0.92,-0.0116
0.02362,0.92,-0.012
0.02364,0.92,-0.0124
0.02366,0.9,-0.0128
0.02368,0.9,-0.0132
0.0237,0.88,-0.0136
0.02372,0.88,-0.0144
0.02374,0.86,-0.0148
0.02376,0.86,-0.0152
0.02378,0.84,-0.0156
0.0238,0.84,-0.016
0.02382,0.82,-0.0164
0.02384,0.82,-0.0168
0.02386,0.8,-0.0172
0.02388,0.78,-0.0176
0.0239,0.78,-0.018
0.02392,0.76,-0.0184
0.02394,0.76,-0.0188
0.02396,0.74,-0.0188
0.02398,0.72,-0.0192
0.024,0.72,-0.0196
0.02402,0.7,-0.02
0.02404,0.68,-0.0204
0.02406,0.68,-0.0208
0.02408,0.66,-0.0212
0.0241,0.64,-0.0216
0.02412,0.64,-0.0216
0.02414,0.62,-0.022
0.02416,0.6,-0.0224
0.02418,0.58,-0.0228
0.0242,0.56,-0.0228
0.02422,0.56,-0.0232
0.02424,0.54,-0.0232
0.02426,0.52,-0.0236
0.02428,0.5,-0.024
0.0243,0.5,-0.0244
0.02432,0.48,-0.0244
0.02434,0.46,-0.0248
0.02436,0.44,-0.0248
0.02438,0.42,-0.0252
0.0244,0.4,-0.0256
0.02442,0.4,-0.0256
0.02444,0.38,-0.026
0.02446,0.36,-0.026
0.02448,0.34,-0.026
0.0245,0.32,-0.0264
0.02452,0.32,-0.0264
0.02454,0.3,-0.0268
0.02456,0.28,-0.0268
0.02458,0.26,-0.0268
0.0246,0.24,-0.0268
0.02462,0.22,-0.0272
0.02464,0.2,-0.0272
0.02466,0.18,-0.0272
0.02468,0.18,-0.0276
0.0247,0.16,-0.0276
0.02472,0.14,-0.0276
0.02474,0.12,-0.0276
0.02476,0.1,-0.0276
0.02478,0.08,-0.0276
0.0248,0.06,-0.028
0.02482,0.04,-0.028
0.02484,0.02,-0.028
0.02486,0.02,-0.028
0.02488,0,-0.028
0.0249,-0.02,-0.028
0.02492,-0.04,-0.028
0.02494,-0.06,-0.028
0.02496,-0.08,-0.028
0.02498,-0.1,-0.028
