-0.00005,0.62,0.126
-0.00004996,0.62,0.126
-0.00004992,0.6,0.128
-0.00004988,0.6,0.128
-0.00004984,0.6,0.128
-0.0000498,0.6,0.128
-0.00004976,0.58,0.13
-0.00004972,0.58,0.13
-0.00004968,0.56,0.13
-0.00004964,0.56,0.132
-0.0000496,0.56,0.132
-0.00004956,0.54,0.132
-0.00004952,0.54,0.132
-0.00004948,0.54,0.134
-0.00004944,0.52,0.134
-0.0000494,0.52,0.134
-0.00004936,0.52,0.134
-0.00004932,0.52,0.136
-0.00004928,0.5,0.136
-0.00004924,0.5,0.136
-0.0000492,0.48,0.136
-0.00004916,0.48,0.138
-0.00004912,0.48,0.138
-0.00004908,0.46,0.138
-0.00004904,0.46,0.138
-0.000049,0.46,0.138
-0.00004896,0.44,0.14
-0.00004892,0.44,0.14
-0.00004888,0.42,0.14
-0.00004884,0.42,0.14
-0.0000488,0.42,0.14
-0.00004876,0.4,0.14
-0.00004872,0.4,0.142
-0.00004868,0.4,0.142
-0.00004864,0.38,0.142
-0.0000486,0.38,0.142
-0.00004856,0.36,0.142
-0.00004852,0.36,0.142
-0.00004848,0.36,0.142
-0.00004844,0.34,0.142
-0.0000484,0.34,0.144
-0.00004836,0.34,0.144
-0.00004832,0.32,0.144
-0.00004828,0.32,0.144
-0.00004824,0.3,0.144
-0.0000482,0.3,0.144
-0.00004816,0.3,0.144
-0.00004812,0.28,0.144
-0.00004808,0.28,0.144
-0.00004804,0.26,0.144
-0.000048,0.26,0.146
-0.00004796,0.26,0.146
-0.00004792,0.24,0.146
-0.00004788,0.24,0.146
-0.00004784,0.22,0.146
-0.0000478,0.22,0.146
-0.00004776,0.22,0.146
-0.00004772,0.2,0.146
-0.00004768,0.2,0.146
-0.00004764,0.18,0.146
-0.0000476,0.18,0.146
-0.00004756,0.18,0.146
-0.00004752,0.16,0.146
-0.00004748,0.16,0.146
-0.00004744,0.14,0.146
-0.0000474,0.14,0.146
-0.00004736,0.12,0.146
-0.00004732,0.12,0.146
-0.00004728,0.12,0.146
-0.00004724,0.1,0.146
-0.0000472,0.1,0.146
-0.00004716,0.08,0.146
-0.00004712,0.08,0.146
-0.00004708,0.08,0.146
-0.00004704,0.06,0.146
-0.000047,0.06,0.146
-0.00004696,0.04,0.144
-0.00004692,0.04,0.144
-0.00004688,0.02,0.144
-0.00004684,0.02,0.144
-0.0000468,0.02,0.144
-0.00004676,0,0.144
-0.00004672,0,0.144
-0.00004668,-0.02,0.144
-0.00004664,-0.02,0.144
-0.0000466,-0.02,0.144
-0.00004656,-0.04,0.144
-0.00004652,-0.04,0.142
-0.00004648,-0.06,0.142
-0.00004644,-0.06,0.142
-0.0000464,-0.06,0.142
-0.00004636,-0.08,0.142
-0.00004632,-0.08,0.142
-0.00004628,-0.1,0.142
-0.00004624,-0.1,0.14
-0.0000462,-0.12,0.14
-0.00004616,-0.12,0.14
-0.00004612,-0.12,0.14
-0.00004608,-0.14,0.14
-0.00004604,-0.14,0.138
-0.000046,-0.16,0.138
-0.00004596,-0.16,0.138
-0.00004592,-0.16,0.138
-0.00004588,-0.18,0.138
-0.00004584,-0.18,0.136
-0.0000458,-0.2,0.136
-0.00004576,-0.2,0.136
-0.00004572,-0.22,0.136
-0.00004568,-0.22,0.136
-0.00004564,-0.22,0.134
-0.0000456,-0.24,0.134
-0.00004556,-0.24,0.134
-0.00004552,-0.26,0.134
-0.00004548,-0.26,0.132
-0.00004544,-0.26,0.132
-0.0000454,-0.28,0.132
-0.00004536,-0.28,0.132
-0.00004532,-0.3,0.13
-0.00004528,-0.3,0.13
-0.00004524,-0.3,0.13
-0.0000452,-0.32,0.128
-0.00004516,-0.32,0.128
-0.00004512,-0.34,0.128
-0.00004508,-0.34,0.126
-0.00004504,-0.34,0.126
-0.000045,-0.36,0.126
-0.00004496,-0.36,0.126
-0.00004492,-0.38,0.124
-0.00004488,-0.38,0.124
-0.00004484,-0.38,0.124
-0.0000448,-0.4,0.122
-0.00004476,-0.4,0.122
-0.00004472,-0.4,0.122
-0.00004468,-0.42,0.12
-0.00004464,-0.42,0.12
-0.0000446,-0.44,0.12
-0.00004456,-0.44,0.118
-0.00004452,-0.44,0.118
-0.00004448,-0.46,0.116
-0.00004444,-0.46,0.116
-0.0000444,-0.46,0.116
-0.00004436,-0.48,0.114
-0.00004432,-0.48,0.114
-0.00004428,-0.5,0.114
-0.00004424,-0.5,0.112
-0.0000442,-0.5,0.112
-0.00004416,-0.52,0.11
-0.00004412,-0.52,0.11
-0.00004408,-0.52,0.108
-0.00004404,-0.54,0.108
-0.000044,-0.54,0.108
-0.00004396,-0.54,0.106
-0.00004392,-0.56,0.106
-0.00004388,-0.56,0.104
-0.00004384,-0.56,0.104
-0.0000438,-0.58,0.104
-0.00004376,-0.58,0.102
-0.00004372,-0.6,0.102
-0.00004368,-0.6,0.1
-0.00004364,-0.6,0.1
-0.0000436,-0.6,0.098
-0.00004356,-0.62,0.098
-0.00004352,-0.62,0.096
-0.00004348,-0.62,0.096
-0.00004344,-0.64,0.096
-0.0000434,-0.64,0.094
-0.00004336,-0.64,0.092
-0.00004332,-0.66,0.092
-0.00004328,-0.66,0.092
-0.00004324,-0.66,0.09
-0.0000432,-0.68,0.09
-0.00004316,-0.68,0.088
-0.00004312,-0.68,0.088
-0.00004308,-0.7,0.086
-0.00004304,-0.7,0.086
-0.000043,-0.7,0.084
-0.00004296,-0.7,0.084
-0.00004292,-0.72,0.082
-0.00004288,-0.72,0.082
-0.00004284,-0.72,0.08
-0.0000428,-0.74,0.08
-0.00004276,-0.74,0.078
-0.00004272,-0.74,0.078
-0.00004268,-0.74,0.076
-0.00004264,-0.76,0.074
-0.0000426,-0.76,0.074
-0.00004256,-0.76,0.072
-0.00004252,-0.76,0.072
-0.00004248,-0.78,0.07
-0.00004244,-0.78,0.07
-0.0000424,-0.78,0.068
-0.00004236,-0.8,0.068
-0.00004232,-0.8,0.066
-0.00004228,-0.8,0.064
-0.00004224,-0.8,0.064
-0.0000422,-0.8,0.062
-0.00004216,-0.82,0.062
-0.00004212,-0.82,0.06
-0.00004208,-0.82,0.06
-0.00004204,-0.82,0.058
-0.000042,-0.84,0.058
-0.00004196,-0.84,0.056
-0.00004192,-0.84,0.054
-0.00004188,-0.84,0.054
-0.00004184,-0.86,0.052
-0.0000418,-0.86,0.052
-0.00004176,-0.86,0.05
-0.00004172,-0.86,0.05
-0.00004168,-0.86,0.048
-0.00004164,-0.88,0.046
-0.0000416,-0.88,0.046
-0.00004156,-0.88,0.044
-0.00004152,-0.88,0.044
-0.00004148,-0.88,0.042
-0.00004144,-0.88,0.04
-0.0000414,-0.9,0.04
-0.00004136,-0.9,0.038
-0.00004132,-0.9,0.038
-0.00004128,-0.9,0.036
-0.00004124,-0.9,0.034
-0.0000412,-0.9,0.034
-0.00004116,-0.92,0.032
-0.00004112,-0.92,0.03
-0.00004108,-0.92,0.03
-0.00004104,-0.92,0.028
-0.000041,-0.92,0.028
-0.00004096,-0.92,0.026
-0.00004092,-0.92,0.024
-0.00004088,-0.94,0.024
-0.00004084,-0.94,0.022
-0.0000408,-0.94,0.022
-0.00004076,-0.94,0.02
-0.00004072,-0.94,0.018
-0.00004068,-0.94,0.018
-0.00004064,-0.94,0.016
-0.0000406,-0.94,0.016
-0.00004056,-0.96,0.014
-0.00004052,-0.96,0.012
-0.00004048,-0.96,0.012
-0.00004044,-0.96,0.01
-0.0000404,-0.96,0.008
-0.00004036,-0.96,0.008
-0.00004032,-0.96,0.006
-0.00004028,-0.96,0.006
-0.00004024,-0.96,0.004
-0.0000402,-0.96,0.002
-0.00004016,-0.96,0.002
-0.00004012,-0.98,0
-0.00004008,-0.98,-0.002
-0.00004004,-0.98,-0.002
-0.00004,-0.98,-0.004
-0.00003996,-0.98,-0.004
-0.00003992,-0.98,-0.006
-0.00003988,-0.98,-0.008
-0.00003984,-0.98,-0.008
-0.0000398,-0.98,-0.01
-0.00003976,-0.98,-0.01
-0.00003972,-0.98,-0.012
-0.00003968,-0.98,-0.014
-0.00003964,-0.98,-0.014
-0.0000396,-0.98,-0.016
-0.00003956,-0.98,-0.018
-0.00003952,-0.98,-0.018
-0.00003948,-0.98,-0.02
-0.00003944,-0.98,-0.022
-0.0000394,-0.98,-0.022
-0.00003936,-0.98,-0.024
-0.00003932,-0.98,-0.024
-0.00003928,-0.98,-0.026
-0.00003924,-0.98,-0.026
-0.0000392,-0.98,-0.028
-0.00003916,-0.98,-0.03
-0.00003912,-0.98,-0.03
-0.00003908,-0.98,-0.032
-0.00003904,-0.98,-0.034
-0.000039,-0.98,-0.034
-0.00003896,-0.98,-0.036
-0.00003892,-0.98,-0.036
-0.00003888,-0.98,-0.038
-0.00003884,-0.98,-0.04
-0.0000388,-0.98,-0.04
-0.00003876,-0.98,-0.042
-0.00003872,-0.98,-0.042
-0.00003868,-0.98,-0.044
-0.00003864,-0.98,-0.044
-0.0000386,-0.96,-0.046
-0.00003856,-0.96,-0.048
-0.00003852,-0.96,-0.048
-0.00003848,-0.96,-0.05
-0.00003844,-0.96,-0.05
-0.0000384,-0.96,-0.052
-0.00003836,-0.96,-0.052
-0.00003832,-0.96,-0.054
-0.00003828,-0.96,-0.056
-0.00003824,-0.96,-0.056
-0.0000382,-0.96,-0.058
-0.00003816,-0.96,-0.058
-0.00003812,-0.96,-0.06
-0.00003808,-0.94,-0.06
-0.00003804,-0.94,-0.062
-0.000038,-0.94,-0.064
-0.00003796,-0.94,-0.064
-0.00003792,-0.94,-0.066
-0.00003788,-0.94,-0.066
-0.00003784,-0.94,-0.068
-0.0000378,-0.92,-0.068
-0.00003776,-0.92,-0.07
-0.00003772,-0.92,-0.07
-0.00003768,-0.92,-0.072
-0.00003764,-0.92,-0.072
-0.0000376,-0.92,-0.074
-0.00003756,-0.92,-0.074
-0.00003752,-0.9,-0.076
-0.00003748,-0.9,-0.078
-0.00003744,-0.9,-0.078
-0.0000374,-0.9,-0.08
-0.00003736,-0.9,-0.08
-0.00003732,-0.9,-0.082
-0.00003728,-0.88,-0.082
-0.00003724,-0.88,-0.084
-0.0000372,-0.88,-0.084
-0.00003716,-0.88,-0.086
-0.00003712,-0.88,-0.086
-0.00003708,-0.86,-0.088
-0.00003704,-0.86,-0.088
-0.000037,-0.86,-0.09
-0.00003696,-0.86,-0.09
-0.00003692,-0.86,-0.09
-0.00003688,-0.84,-0.092
-0.00003684,-0.84,-0.092
-0.0000368,-0.84,-0.094
-0.00003676,-0.84,-0.094
-0.00003672,-0.82,-0.096
-0.00003668,-0.82,-0.096
-0.00003664,-0.82,-0.098
-0.0000366,-0.82,-0.098
-0.00003656,-0.82,-0.098
-0.00003652,-0.8,-0.1
-0.00003648,-0.8,-0.1
-0.00003644,-0.8,-0.102
-0.0000364,-0.8,-0.102
-0.00003636,-0.78,-0.104
-0.00003632,-0.78,-0.104
-0.00003628,-0.78,-0.104
-0.00003624,-0.78,-0.106
-0.0000362,-0.76,-0.106
-0.00003616,-0.76,-0.108
-0.00003612,-0.76,-0.108
-0.00003608,-0.76,-0.11
-0.00003604,-0.74,-0.11
-0.000036,-0.74,-0.11
-0.00003596,-0.74,-0.112
-0.00003592,-0.74,-0.112
-0.00003588,-0.72,-0.112
-0.00003584,-0.72,-0.114
-0.0000358,-0.72,-0.114
-0.00003576,-0.7,-0.114
-0.00003572,-0.7,-0.116
-0.00003568,-0.7,-0.116
-0.00003564,-0.7,-0.118
-0.0000356,-0.68,-0.118
-0.00003556,-0.68,-0.118
-0.00003552,-0.68,-0.12
-0.00003548,-0.66,-0.12
-0.00003544,-0.66,-0.12
-0.0000354,-0.66,-0.122
-0.00003536,-0.64,-0.122
-0.00003532,-0.64,-0.122
-0.00003528,-0.64,-0.124
-0.00003524,-0.62,-0.124
-0.0000352,-0.62,-0.124
-0.00003516,-0.62,-0.124
-0.00003512,-0.6,-0.126
-0.00003508,-0.6,-0.126
-0.00003504,-0.6,-0.126
-0.000035,-0.58,-0.128
-0.00003496,-0.58,-0.128
-0.00003492,-0.58,-0.128
-0.00003488,-0.56,-0.128
-0.00003484,-0.56,-0.13
-0.0000348,-0.56,-0.13
-0.00003476,-0.54,-0.13
-0.00003472,-0.54,-0.13
-0.00003468,-0.54,-0.132
-0.00003464,-0.52,-0.132
-0.0000346,-0.52,-0.132
-0.00003456,-0.52,-0.132
-0.00003452,-0.5,-0.134
-0.00003448,-0.5,-0.134
-0.00003444,-0.5,-0.134
-0.0000344,-0.48,-0.134
-0.00003436,-0.48,-0.134
-0.00003432,-0.46,-0.136
-0.00003428,-0.46,-0.136
-0.00003424,-0.46,-0.136
-0.0000342,-0.44,-0.136
-0.00003416,-0.44,-0.136
-0.00003412,-0.42,-0.138
-0.00003408,-0.42,-0.138
-0.00003404,-0.42,-0.138
-0.000034,-0.4,-0.138
-0.00003396,-0.4,-0.138
-0.00003392,-0.4,-0.138
-0.00003388,-0.38,-0.138
-0.00003384,-0.38,-0.138
-0.0000338,-0.38,-0.14
-0.00003376,-0.36,-0.14
-0.00003372,-0.36,-0.14
-0.00003368,-0.34,-0.14
-0.00003364,-0.34,-0.14
-0.0000336,-0.32,-0.14
-0.00003356,-0.32,-0.14
-0.00003352,-0.32,-0.14
-0.00003348,-0.3,-0.142
-0.00003344,-0.3,-0.142
-0.0000334,-0.28,-0.142
-0.00003336,-0.28,-0.142
-0.00003332,-0.28,-0.142
-0.00003328,-0.26,-0.142
-0.00003324,-0.26,-0.142
-0.0000332,-0.26,-0.142
-0.00003316,-0.24,-0.142
-0.00003312,-0.24,-0.142
-0.00003308,-0.22,-0.142
-0.00003304,-0.22,-0.142
-0.000033,-0.2,-0.142
-0.00003296,-0.2,-0.142
-0.00003292,-0.2,-0.142
-0.00003288,-0.18,-0.142
-0.00003284,-0.18,-0.142
-0.0000328,-0.16,-0.142
-0.00003276,-0.16,-0.142
-0.00003272,-0.16,-0.142
-0.00003268,-0.14,-0.142
-0.00003264,-0.14,-0.142
-0.0000326,-0.12,-0.142
-0.00003256,-0.12,-0.142
-0.00003252,-0.1,-0.142
-0.00003248,-0.1,-0.142
-0.00003244,-0.1,-0.142
-0.0000324,-0.08,-0.142
-0.00003236,-0.08,-0.142
-0.00003232,-0.06,-0.142
-0.00003228,-0.06,-0.142
-0.00003224,-0.04,-0.142
-0.0000322,-0.04,-0.14
-0.00003216,-0.04,-0.14
-0.00003212,-0.02,-0.14
-0.00003208,-0.02,-0.14
-0.00003204,-0.02,-0.14
-0.000032,0,-0.14
-0.00003196,0,-0.14
-0.00003192,0.02,-0.14
-0.00003188,0.02,-0.14
-0.00003184,0.04,-0.138
-0.0000318,0.04,-0.138
-0.00003176,0.04,-0.138
-0.00003172,0.06,-0.138
-0.00003168,0.06,-0.138
-0.00003164,0.08,-0.138
-0.0000316,0.08,-0.138
-0.00003156,0.1,-0.136
-0.00003152,0.1,-0.136
-0.00003148,0.1,-0.136
-0.00003144,0.12,-0.136
-0.0000314,0.12,-0.136
-0.00003136,0.12,-0.136
-0.00003132,0.14,-0.134
-0.00003128,0.14,-0.134
-0.00003124,0.16,-0.134
-0.0000312,0.16,-0.134
-0.00003116,0.16,-0.132
-0.00003112,0.18,-0.132
-0.00003108,0.18,-0.132
-0.00003104,0.2,-0.132
-0.000031,0.2,-0.132
-0.00003096,0.22,-0.13
-0.00003092,0.22,-0.13
-0.00003088,0.22,-0.13
-0.00003084,0.24,-0.13
-0.0000308,0.24,-0.128
-0.00003076,0.26,-0.128
-0.00003072,0.26,-0.128
-0.00003068,0.26,-0.128
-0.00003064,0.28,-0.126
-0.0000306,0.28,-0.126
-0.00003056,0.3,-0.126
-0.00003052,0.3,-0.124
-0.00003048,0.3,-0.124
-0.00003044,0.32,-0.124
-0.0000304,0.32,-0.124
-0.00003036,0.34,-0.122
-0.00003032,0.34,-0.122
-0.00003028,0.34,-0.122
-0.00003024,0.36,-0.12
-0.0000302,0.36,-0.12
-0.00003016,0.36,-0.12
-0.00003012,0.38,-0.118
-0.00003008,0.38,-0.118
-0.00003004,0.4,-0.118
-0.00003,0.4,-0.116
-0.00002996,0.4,-0.116
-0.00002992,0.42,-0.116
-0.00002988,0.42,-0.114
-0.00002984,0.42,-0.114
-0.0000298,0.44,-0.112
-0.00002976,0.44,-0.112
-0.00002972,0.46,-0.112
-0.00002968,0.46,-0.11
-0.00002964,0.46,-0.11
-0.0000296,0.48,-0.11
-0.00002956,0.48,-0.108
-0.00002952,0.5,-0.108
-0.00002948,0.5,-0.106
-0.00002944,0.5,-0.106
-0.0000294,0.5,-0.106
-0.00002936,0.52,-0.104
-0.00002932,0.52,-0.104
-0.00002928,0.52,-0.102
-0.00002924,0.54,-0.102
-0.0000292,0.54,-0.1
-0.00002916,0.56,-0.1
-0.00002912,0.56,-0.1
-0.00002908,0.56,-0.098
-0.00002904,0.56,-0.098
-0.000029,0.58,-0.096
-0.00002896,0.58,-0.096
-0.00002892,0.6,-0.094
-0.00002888,0.6,-0.094
-0.00002884,0.6,-0.092
-0.0000288,0.6,-0.092
-0.00002876,0.62,-0.092
-0.00002872,0.62,-0.09
-0.00002868,0.62,-0.09
-0.00002864,0.64,-0.088
-0.0000286,0.64,-0.088
-0.00002856,0.64,-0.086
-0.00002852,0.66,-0.086
-0.00002848,0.66,-0.084
-0.00002844,0.66,-0.084
-0.0000284,0.68,-0.082
-0.00002836,0.68,-0.082
-0.00002832,0.68,-0.08
-0.00002828,0.68,-0.08
-0.00002824,0.7,-0.078
-0.0000282,0.7,-0.078
-0.00002816,0.7,-0.076
-0.00002812,0.72,-0.076
-0.00002808,0.72,-0.074
-0.00002804,0.72,-0.074
-0.000028,0.72,-0.072
-0.00002796,0.74,-0.07
-0.00002792,0.74,-0.07
-0.00002788,0.74,-0.068
-0.00002784,0.74,-0.068
-0.0000278,0.76,-0.066
-0.00002776,0.76,-0.066
-0.00002772,0.76,-0.064
-0.00002768,0.76,-0.064
-0.00002764,0.78,-0.062
-0.0000276,0.78,-0.062
-0.00002756,0.78,-0.06
-0.00002752,0.78,-0.058
-0.00002748,0.8,-0.058
-0.00002744,0.8,-0.056
-0.0000274,0.8,-0.056
-0.00002736,0.8,-0.054
-0.00002732,0.82,-0.054
-0.00002728,0.82,-0.052
-0.00002724,0.82,-0.05
-0.0000272,0.82,-0.05
-0.00002716,0.84,-0.048
-0.00002712,0.84,-0.048
-0.00002708,0.84,-0.046
-0.00002704,0.84,-0.046
-0.000027,0.84,-0.044
-0.00002696,0.84,-0.042
-0.00002692,0.86,-0.042
-0.00002688,0.86,-0.04
-0.00002684,0.86,-0.04
-0.0000268,0.86,-0.038
-0.00002676,0.86,-0.036
-0.00002672,0.88,-0.036
-0.00002668,0.88,-0.034
-0.00002664,0.88,-0.034
-0.0000266,0.88,-0.032
-0.00002656,0.88,-0.03
-0.00002652,0.88,-0.03
-0.00002648,0.88,-0.028
-0.00002644,0.9,-0.028
-0.0000264,0.9,-0.026
-0.00002636,0.9,-0.024
-0.00002632,0.9,-0.024
-0.00002628,0.9,-0.022
-0.00002624,0.9,-0.022
-0.0000262,0.9,-0.02
-0.00002616,0.92,-0.018
-0.00002612,0.92,-0.018
-0.00002608,0.92,-0.016
-0.00002604,0.92,-0.016
-0.000026,0.92,-0.014
-0.00002596,0.92,-0.012
-0.00002592,0.92,-0.012
-0.00002588,0.92,-0.01
-0.00002584,0.92,-0.008
-0.0000258,0.94,-0.008
-0.00002576,0.94,-0.006
-0.00002572,0.94,-0.006
-0.00002568,0.94,-0.004
-0.00002564,0.94,-0.002
-0.0000256,0.94,-0.002
-0.00002556,0.94,0
-0.00002552,0.94,0.002
-0.00002548,0.94,0.002
-0.00002544,0.94,0.004
-0.0000254,0.94,0.006
-0.00002536,0.94,0.006
-0.00002532,0.96,0.008
-0.00002528,0.96,0.008
-0.00002524,0.96,0.01
-0.0000252,0.96,0.012
-0.00002516,0.96,0.012
-0.00002512,0.96,0.014
-0.00002508,0.96,0.014
-0.00002504,0.96,0.016
-0.000025,0.96,0.018
-0.00002496,0.96,0.018
-0.00002492,0.96,0.02
-0.00002488,0.96,0.022
-0.00002484,0.96,0.022
-0.0000248,0.96,0.024
-0.00002476,0.96,0.024
-0.00002472,0.96,0.026
-0.00002468,0.96,0.028
-0.00002464,0.96,0.028
-0.0000246,0.96,0.03
-0.00002456,0.96,0.03
-0.00002452,0.96,0.032
-0.00002448,0.96,0.034
-0.00002444,0.96,0.034
-0.0000244,0.96,0.036
-0.00002436,0.96,0.038
-0.00002432,0.96,0.038
-0.00002428,0.96,0.04
-0.00002424,0.96,0.04
-0.0000242,0.96,0.042
-0.00002416,0.96,0.044
-0.00002412,0.96,0.044
-0.00002408,0.96,0.046
-0.00002404,0.96,0.046
-0.000024,0.96,0.048
-0.00002396,0.94,0.048
-0.00002392,0.94,0.05
-0.00002388,0.94,0.052
-0.00002384,0.94,0.052
-0.0000238,0.94,0.054
-0.00002376,0.94,0.054
-0.00002372,0.94,0.056
-0.00002368,0.94,0.058
-0.00002364,0.94,0.058
-0.0000236,0.94,0.06
-0.00002356,0.92,0.06
-0.00002352,0.92,0.062
-0.00002348,0.92,0.062
-0.00002344,0.92,0.064
-0.0000234,0.92,0.064
-0.00002336,0.92,0.066
-0.00002332,0.92,0.066
-0.00002328,0.92,0.068
-0.00002324,0.92,0.07
-0.0000232,0.9,0.07
-0.00002316,0.9,0.072
-0.00002312,0.9,0.072
-0.00002308,0.9,0.074
-0.00002304,0.9,0.074
-0.000023,0.9,0.076
-0.00002296,0.9,0.078
-0.00002292,0.9,0.078
-0.00002288,0.88,0.08
-0.00002284,0.88,0.08
-0.0000228,0.88,0.082
-0.00002276,0.88,0.082
-0.00002272,0.88,0.084
-0.00002268,0.88,0.084
-0.00002264,0.86,0.086
-0.0000226,0.86,0.086
-0.00002256,0.86,0.088
-0.00002252,0.86,0.088
-0.00002248,0.86,0.088
-0.00002244,0.84,0.09
-0.0000224,0.84,0.092
-0.00002236,0.84,0.092
-0.00002232,0.84,0.092
-0.00002228,0.84,0.094
-0.00002224,0.82,0.094
-0.0000222,0.82,0.096
-0.00002216,0.82,0.096
-0.00002212,0.82,0.098
-0.00002208,0.82,0.098
-0.00002204,0.8,0.1
-0.000022,0.8,0.1
-0.00002196,0.8,0.102
-0.00002192,0.8,0.102
-0.00002188,0.78,0.104
-0.00002184,0.78,0.104
-0.0000218,0.78,0.106
-0.00002176,0.78,0.106
-0.00002172,0.76,0.106
-0.00002168,0.76,0.108
-0.00002164,0.76,0.108
-0.0000216,0.76,0.11
-0.00002156,0.76,0.11
-0.00002152,0.74,0.11
-0.00002148,0.74,0.112
-0.00002144,0.74,0.112
-0.0000214,0.72,0.114
-0.00002136,0.72,0.114
-0.00002132,0.72,0.114
-0.00002128,0.72,0.116
-0.00002124,0.7,0.116
-0.0000212,0.7,0.116
-0.00002116,0.7,0.118
-0.00002112,0.68,0.118
-0.00002108,0.68,0.12
-0.00002104,0.68,0.12
-0.000021,0.68,0.12
-0.00002096,0.66,0.122
-0.00002092,0.66,0.122
-0.00002088,0.66,0.122
-0.00002084,0.64,0.124
-0.0000208,0.64,0.124
-0.00002076,0.64,0.124
-0.00002072,0.64,0.126
-0.00002068,0.62,0.126
-0.00002064,0.62,0.126
-0.0000206,0.6,0.126
-0.00002056,0.6,0.128
-0.00002052,0.6,0.128
-0.00002048,0.6,0.13
-0.00002044,0.58,0.13
-0.0000204,0.58,0.13
-0.00002036,0.58,0.13
-0.00002032,0.56,0.132
-0.00002028,0.56,0.132
-0.00002024,0.56,0.132
-0.0000202,0.54,0.132
-0.00002016,0.54,0.134
-0.00002012,0.54,0.134
-0.00002008,0.52,0.134
-0.00002004,0.52,0.134
-0.00002,0.5,0.136
-0.00001996,0.5,0.136
-0.00001992,0.5,0.136
-0.00001988,0.5,0.136
-0.00001984,0.48,0.136
-0.0000198,0.48,0.138
-0.00001976,0.46,0.138
-0.00001972,0.46,0.138
-0.00001968,0.46,0.138
-0.00001964,0.44,0.138
-0.0000196,0.44,0.14
-0.00001956,0.44,0.14
-0.00001952,0.42,0.14
-0.00001948,0.42,0.14
-0.00001944,0.42,0.14
-0.0000194,0.4,0.14
-0.00001936,0.4,0.142
-0.00001932,0.38,0.142
-0.00001928,0.38,0.142
-0.00001924,0.38,0.142
-0.0000192,0.36,0.142
-0.00001916,0.36,0.142
-0.00001912,0.34,0.142
-0.00001908,0.34,0.144
-0.00001904,0.34,0.144
-0.000019,0.32,0.144
-0.00001896,0.32,0.144
-0.00001892,0.32,0.144
-0.00001888,0.3,0.144
-0.00001884,0.3,0.144
-0.0000188,0.28,0.144
-0.00001876,0.28,0.144
-0.00001872,0.26,0.144
-0.00001868,0.26,0.146
-0.00001864,0.26,0.146
-0.0000186,0.24,0.146
-0.00001856,0.24,0.146
-0.00001852,0.22,0.146
-0.00001848,0.22,0.146
-0.00001844,0.22,0.146
-0.0000184,0.2,0.146
-0.00001836,0.2,0.146
-0.00001832,0.2,0.146
-0.00001828,0.18,0.146
-0.00001824,0.18,0.146
-0.0000182,0.16,0.146
-0.00001816,0.16,0.146
-0.00001812,0.14,0.146
-0.00001808,0.14,0.146
-0.00001804,0.14,0.146
-0.000018,0.12,0.146
-0.00001796,0.12,0.146
-0.00001792,0.1,0.146
-0.00001788,0.1,0.146
-0.00001784,0.1,0.146
-0.0000178,0.08,0.146
-0.00001776,0.08,0.146
-0.00001772,0.06,0.146
-0.00001768,0.06,0.146
-0.00001764,0.06,0.146
-0.0000176,0.04,0.144
-0.00001756,0.04,0.144
-0.00001752,0.02,0.144
-0.00001748,0.02,0.144
-0.00001744,0,0.144
-0.0000174,0,0.144
-0.00001736,0,0.144
-0.00001732,-0.02,0.144
-0.00001728,-0.02,0.144
-0.00001724,-0.04,0.144
-0.0000172,-0.04,0.142
-0.00001716,-0.04,0.142
-0.00001712,-0.06,0.142
-0.00001708,-0.06,0.142
-0.00001704,-0.08,0.142
-0.000017,-0.08,0.142
-0.00001696,-0.1,0.142
-0.00001692,-0.1,0.142
-0.00001688,-0.1,0.14
-0.00001684,-0.12,0.14
-0.0000168,-0.12,0.14
-0.00001676,-0.14,0.14
-0.00001672,-0.14,0.14
-0.00001668,-0.14,0.138
-0.00001664,-0.16,0.138
-0.0000166,-0.16,0.138
-0.00001656,-0.18,0.138
-0.00001652,-0.18,0.138
-0.00001648,-0.2,0.136
-0.00001644,-0.2,0.136
-0.0000164,-0.2,0.136
-0.00001636,-0.22,0.136
-0.00001632,-0.22,0.136
-0.00001628,-0.24,0.134
-0.00001624,-0.24,0.134
-0.0000162,-0.24,0.134
-0.00001616,-0.26,0.134
-0.00001612,-0.26,0.132
-0.00001608,-0.28,0.132
-0.00001604,-0.28,0.132
-0.000016,-0.3,0.13
-0.00001596,-0.3,0.13
-0.00001592,-0.3,0.13
-0.00001588,-0.32,0.13
-0.00001584,-0.32,0.128
-0.0000158,-0.32,0.128
-0.00001576,-0.34,0.128
-0.00001572,-0.34,0.126
-0.00001568,-0.36,0.126
-0.00001564,-0.36,0.126
-0.0000156,-0.36,0.124
-0.00001556,-0.38,0.124
-0.00001552,-0.38,0.124
-0.00001548,-0.4,0.122
-0.00001544,-0.4,0.122
-0.0000154,-0.4,0.122
-0.00001536,-0.42,0.12
-0.00001532,-0.42,0.12
-0.00001528,-0.44,0.12
-0.00001524,-0.44,0.118
-0.0000152,-0.44,0.118
-0.00001516,-0.46,0.118
-0.00001512,-0.46,0.116
-0.00001508,-0.46,0.116
-0.00001504,-0.48,0.114
-0.000015,-0.48,0.114
-0.00001496,-0.48,0.114
-0.00001492,-0.5,0.112
-0.00001488,-0.5,0.112
-0.00001484,-0.52,0.112
-0.0000148,-0.52,0.11
-0.00001476,-0.52,0.11
-0.00001472,-0.54,0.108
-0.00001468,-0.54,0.108
-0.00001464,-0.54,0.106
-0.0000146,-0.56,0.106
-0.00001456,-0.56,0.106
-0.00001452,-0.56,0.104
-0.00001448,-0.58,0.104
-0.00001444,-0.58,0.102
-0.0000144,-0.58,0.102
-0.00001436,-0.6,0.1
-0.00001432,-0.6,0.1
-0.00001428,-0.6,0.098
-0.00001424,-0.62,0.098
-0.0000142,-0.62,0.096
-0.00001416,-0.62,0.096
-0.00001412,-0.64,0.096
-0.00001408,-0.64,0.094
-0.00001404,-0.64,0.094
-0.000014,-0.66,0.092
-0.00001396,-0.66,0.092
-0.00001392,-0.66,0.09
-0.00001388,-0.68,0.09
-0.00001384,-0.68,0.088
-0.0000138,-0.68,0.088
-0.00001376,-0.7,0.086
-0.00001372,-0.7,0.086
-0.00001368,-0.7,0.084
-0.00001364,-0.7,0.084
-0.0000136,-0.72,0.082
-0.00001356,-0.72,0.082
-0.00001352,-0.72,0.08
-0.00001348,-0.72,0.08
-0.00001344,-0.74,0.078
-0.0000134,-0.74,0.078
-0.00001336,-0.74,0.076
-0.00001332,-0.76,0.076
-0.00001328,-0.76,0.074
-0.00001324,-0.76,0.072
-0.0000132,-0.76,0.072
-0.00001316,-0.78,0.07
-0.00001312,-0.78,0.07
-0.00001308,-0.78,0.068
-0.00001304,-0.78,0.068
-0.000013,-0.8,0.066
-0.00001296,-0.8,0.066
-0.00001292,-0.8,0.064
-0.00001288,-0.8,0.062
-0.00001284,-0.82,0.062
-0.0000128,-0.82,0.06
-0.00001276,-0.82,0.06
-0.00001272,-0.82,0.058
-0.00001268,-0.84,0.058
-0.00001264,-0.84,0.056
-0.0000126,-0.84,0.056
-0.00001256,-0.84,0.054
-0.00001252,-0.84,0.052
-0.00001248,-0.86,0.052
-0.00001244,-0.86,0.05
-0.0000124,-0.86,0.05
-0.00001236,-0.86,0.048
-0.00001232,-0.88,0.048
-0.00001228,-0.88,0.046
-0.00001224,-0.88,0.044
-0.0000122,-0.88,0.044
-0.00001216,-0.88,0.042
-0.00001212,-0.88,0.042
-0.00001208,-0.9,0.04
-0.00001204,-0.9,0.038
-0.000012,-0.9,0.038
-0.00001196,-0.9,0.036
-0.00001192,-0.9,0.034
-0.00001188,-0.9,0.034
-0.00001184,-0.92,0.032
-0.0000118,-0.92,0.032
-0.00001176,-0.92,0.03
-0.00001172,-0.92,0.028
-0.00001168,-0.92,0.028
-0.00001164,-0.92,0.026
-0.0000116,-0.92,0.026
-0.00001156,-0.94,0.024
-0.00001152,-0.94,0.022
-0.00001148,-0.94,0.022
-0.00001144,-0.94,0.02
-0.0000114,-0.94,0.02
-0.00001136,-0.94,0.018
-0.00001132,-0.94,0.016
-0.00001128,-0.96,0.016
-0.00001124,-0.96,0.014
-0.0000112,-0.96,0.012
-0.00001116,-0.96,0.012
-0.00001112,-0.96,0.01
-0.00001108,-0.96,0.01
-0.00001104,-0.96,0.008
-0.000011,-0.96,0.006
-0.00001096,-0.96,0.006
-0.00001092,-0.96,0.004
-0.00001088,-0.96,0.004
-0.00001084,-0.96,0.002
-0.0000108,-0.98,0
-0.00001076,-0.98,0
-0.00001072,-0.98,-0.002
-0.00001068,-0.98,-0.004
-0.00001064,-0.98,-0.004
-0.0000106,-0.98,-0.006
-0.00001056,-0.98,-0.006
-0.00001052,-0.98,-0.008
-0.00001048,-0.98,-0.01
-0.00001044,-0.98,-0.01
-0.0000104,-0.98,-0.012
-0.00001036,-0.98,-0.014
-0.00001032,-0.98,-0.014
-0.00001028,-0.98,-0.016
-0.00001024,-0.98,-0.016
-0.0000102,-0.98,-0.018
-0.00001016,-0.98,-0.02
-0.00001012,-0.98,-0.02
-0.00001008,-0.98,-0.022
-0.00001004,-0.98,-0.024
-0.00001,-0.98,-0.024
-0.00000996,-0.98,-0.026
-0.00000992,-0.98,-0.026
-0.00000988,-0.98,-0.028
-0.00000984,-0.98,-0.03
-0.0000098,-0.98,-0.03
-0.00000976,-0.98,-0.032
-0.00000972,-0.98,-0.032
-0.00000968,-0.98,-0.034
-0.00000964,-0.98,-0.036
-0.0000096,-0.98,-0.036
-0.00000956,-0.98,-0.038
-0.00000952,-0.98,-0.038
-0.00000948,-0.98,-0.04
-0.00000944,-0.98,-0.04
-0.0000094,-0.98,-0.042
-0.00000936,-0.98,-0.044
-0.00000932,-0.98,-0.044
-0.00000928,-0.96,-0.046
-0.00000924,-0.96,-0.046
-0.0000092,-0.96,-0.048
-0.00000916,-0.96,-0.05
-0.00000912,-0.96,-0.05
-0.00000908,-0.96,-0.052
-0.00000904,-0.96,-0.052
-0.000009,-0.96,-0.054
-0.00000896,-0.96,-0.054
-0.00000892,-0.96,-0.056
-0.00000888,-0.96,-0.058
-0.00000884,-0.96,-0.058
-0.0000088,-0.94,-0.06
-0.00000876,-0.94,-0.06
-0.00000872,-0.94,-0.062
-0.00000868,-0.94,-0.062
-0.00000864,-0.94,-0.064
-0.0000086,-0.94,-0.064
-0.00000856,-0.94,-0.066
-0.00000852,-0.94,-0.068
-0.00000848,-0.92,-0.068
-0.00000844,-0.92,-0.07
-0.0000084,-0.92,-0.07
-0.00000836,-0.92,-0.072
-0.00000832,-0.92,-0.072
-0.00000828,-0.92,-0.074
-0.00000824,-0.92,-0.074
-0.0000082,-0.9,-0.076
-0.00000816,-0.9,-0.076
-0.00000812,-0.9,-0.078
-0.00000808,-0.9,-0.078
-0.00000804,-0.9,-0.08
-0.000008,-0.9,-0.08
-0.00000796,-0.9,-0.082
-0.00000792,-0.88,-0.082
-0.00000788,-0.88,-0.084
-0.00000784,-0.88,-0.084
-0.0000078,-0.88,-0.086
-0.00000776,-0.86,-0.086
-0.00000772,-0.86,-0.088
-0.00000768,-0.86,-0.088
-0.00000764,-0.86,-0.09
-0.0000076,-0.86,-0.09
-0.00000756,-0.86,-0.092
-0.00000752,-0.84,-0.092
-0.00000748,-0.84,-0.094
-0.00000744,-0.84,-0.094
-0.0000074,-0.84,-0.096
-0.00000736,-0.82,-0.096
-0.00000732,-0.82,-0.096
-0.00000728,-0.82,-0.098
-0.00000724,-0.82,-0.098
-0.0000072,-0.8,-0.1
-0.00000716,-0.8,-0.1
-0.00000712,-0.8,-0.102
-0.00000708,-0.8,-0.102
-0.00000704,-0.78,-0.104
-0.000007,-0.78,-0.104
-0.00000696,-0.78,-0.104
-0.00000692,-0.78,-0.106
-0.00000688,-0.76,-0.106
-0.00000684,-0.76,-0.108
-0.0000068,-0.76,-0.108
-0.00000676,-0.76,-0.108
-0.00000672,-0.76,-0.11
-0.00000668,-0.74,-0.11
-0.00000664,-0.74,-0.112
-0.0000066,-0.74,-0.112
-0.00000656,-0.72,-0.112
-0.00000652,-0.72,-0.114
-0.00000648,-0.72,-0.114
-0.00000644,-0.72,-0.114
-0.0000064,-0.7,-0.116
-0.00000636,-0.7,-0.116
-0.00000632,-0.7,-0.116
-0.00000628,-0.68,-0.118
-0.00000624,-0.68,-0.118
-0.0000062,-0.68,-0.12
-0.00000616,-0.66,-0.12
-0.00000612,-0.66,-0.12
-0.00000608,-0.66,-0.122
-0.00000604,-0.64,-0.122
-0.000006,-0.64,-0.122
-0.00000596,-0.64,-0.122
-0.00000592,-0.64,-0.124
-0.00000588,-0.62,-0.124
-0.00000584,-0.62,-0.124
-0.0000058,-0.62,-0.126
-0.00000576,-0.6,-0.126
-0.00000572,-0.6,-0.126
-0.00000568,-0.6,-0.126
-0.00000564,-0.58,-0.128
-0.0000056,-0.58,-0.128
-0.00000556,-0.56,-0.128
-0.00000552,-0.56,-0.13
-0.00000548,-0.56,-0.13
-0.00000544,-0.54,-0.13
-0.0000054,-0.54,-0.13
-0.00000536,-0.54,-0.132
-0.00000532,-0.52,-0.132
-0.00000528,-0.52,-0.132
-0.00000524,-0.52,-0.132
-0.0000052,-0.5,-0.134
-0.00000516,-0.5,-0.134
-0.00000512,-0.5,-0.134
-0.00000508,-0.48,-0.134
-0.00000504,-0.48,-0.134
-0.000005,-0.46,-0.136
-0.00000496,-0.46,-0.136
-0.00000492,-0.46,-0.136
-0.00000488,-0.44,-0.136
-0.00000484,-0.44,-0.136
-0.0000048,-0.44,-0.136
-0.00000476,-0.42,-0.138
-0.00000472,-0.42,-0.138
-0.00000468,-0.4,-0.138
-0.00000464,-0.4,-0.138
-0.0000046,-0.4,-0.138
-0.00000456,-0.38,-0.138
-0.00000452,-0.38,-0.138
-0.00000448,-0.38,-0.14
-0.00000444,-0.36,-0.14
-0.0000044,-0.36,-0.14
-0.00000436,-0.34,-0.14
-0.00000432,-0.34,-0.14
-0.00000428,-0.32,-0.14
-0.00000424,-0.32,-0.14
-0.0000042,-0.32,-0.142
-0.00000416,-0.3,-0.14
-0.00000412,-0.3,-0.142
-0.00000408,-0.3,-0.142
-0.00000404,-0.28,-0.142
-0.000004,-0.28,-0.142
-0.00000396,-0.26,-0.142
-0.00000392,-0.26,-0.142
-0.00000388,-0.26,-0.142
-0.00000384,-0.24,-0.142
-0.0000038,-0.24,-0.142
-0.00000376,-0.22,-0.142
-0.00000372,-0.22,-0.142
-0.00000368,-0.2,-0.142
-0.00000364,-0.2,-0.142
-0.0000036,-0.2,-0.142
-0.00000356,-0.18,-0.142
-0.00000352,-0.18,-0.142
-0.00000348,-0.16,-0.142
-0.00000344,-0.16,-0.142
-0.0000034,-0.16,-0.142
-0.00000336,-0.14,-0.142
-0.00000332,-0.14,-0.142
-0.00000328,-0.12,-0.142
-0.00000324,-0.12,-0.142
-0.0000032,-0.12,-0.142
-0.00000316,-0.1,-0.142
-0.00000312,-0.1,-0.142
-0.00000308,-0.08,-0.142
-0.00000304,-0.08,-0.142
-0.000003,-0.06,-0.142
-0.00000296,-0.06,-0.142
-0.00000292,-0.06,-0.142
-0.00000288,-0.04,-0.142
-0.00000284,-0.04,-0.14
-0.0000028,-0.02,-0.14
-0.00000276,-0.02,-0.14
-0.00000272,-0.02,-0.14
-0.00000268,0,-0.14
-0.00000264,0,-0.14
-0.0000026,0.02,-0.14
-0.00000256,0.02,-0.14
-0.00000252,0.02,-0.14
-0.00000248,0.04,-0.138
-0.00000244,0.04,-0.138
-0.0000024,0.06,-0.138
-0.00000236,0.06,-0.138
-0.00000232,0.08,-0.138
-0.00000228,0.08,-0.138
-0.00000224,0.08,-0.138
-0.0000022,0.1,-0.136
-0.00000216,0.1,-0.136
-0.00000212,0.12,-0.136
-0.00000208,0.12,-0.136
-0.00000204,0.12,-0.136
-0.000002,0.14,-0.134
-0.00000196,0.14,-0.134
-0.00000192,0.16,-0.134
-0.00000188,0.16,-0.134
-0.00000184,0.16,-0.134
-0.0000018,0.18,-0.132
-0.00000176,0.18,-0.132
-0.00000172,0.2,-0.132
-0.00000168,0.2,-0.132
-0.00000164,0.2,-0.132
-0.0000016,0.22,-0.13
-0.00000156,0.22,-0.13
-0.00000152,0.24,-0.13
-0.00000148,0.24,-0.13
-0.00000144,0.26,-0.128
-0.0000014,0.26,-0.128
-0.00000136,0.26,-0.128
-0.00000132,0.28,-0.126
-0.00000128,0.28,-0.126
-0.00000124,0.3,-0.126
-0.0000012,0.3,-0.126
-0.00000116,0.3,-0.124
-0.00000112,0.32,-0.124
-0.00000108,0.32,-0.124
-0.00000104,0.34,-0.124
-0.000001,0.34,-0.122
-0.00000096,0.34,-0.122
-0.00000092,0.36,-0.12
-0.00000088,0.36,-0.12
-0.00000084,0.36,-0.12
-0.0000008,0.38,-0.12
-0.00000076,0.38,-0.118
-0.00000072,0.4,-0.118
-0.00000068,0.4,-0.118
-0.00000064,0.4,-0.116
-0.0000006,0.42,-0.116
-0.00000056,0.42,-0.114
-0.00000052,0.42,-0.114
-0.00000048,0.44,-0.114
-0.00000044,0.44,-0.112
-0.0000004,0.44,-0.112
-0.00000036,0.46,-0.11
-0.00000032,0.46,-0.11
-0.00000028,0.48,-0.11
-0.00000024,0.48,-0.108
-0.0000002,0.48,-0.108
-0.00000016,0.5,-0.108
-0.00000012,0.5,-0.106
-0.00000008,0.52,-0.106
-0.00000004,0.52,-0.104
0,0.52,-0.104
0.00000004,0.54,-0.104
0.00000008,0.54,-0.102
0.00000012,0.54,-0.102
0.00000016,0.56,-0.1
0.0000002,0.56,-0.1
0.00000024,0.56,-0.098
0.00000028,0.58,-0.098
0.00000032,0.58,-0.098
0.00000036,0.58,-0.096
0.0000004,0.58,-0.096
0.00000044,0.6,-0.094
0.00000048,0.6,-0.094
0.00000052,0.62,-0.092
0.00000056,0.62,-0.092
0.0000006,0.62,-0.09
0.00000064,0.62,-0.09
0.00000068,0.64,-0.088
0.00000072,0.64,-0.088
0.00000076,0.64,-0.086
0.0000008,0.66,-0.086
0.00000084,0.66,-0.084
0.00000088,0.66,-0.084
0.00000092,0.68,-0.082
0.00000096,0.68,-0.082
0.000001,0.68,-0.08
0.00000104,0.68,-0.08
0.00000108,0.7,-0.08
0.00000112,0.7,-0.078
0.00000116,0.7,-0.076
0.0000012,0.72,-0.076
0.00000124,0.72,-0.074
0.00000128,0.72,-0.074
0.00000132,0.72,-0.072
0.00000136,0.74,-0.072
0.0000014,0.74,-0.07
0.00000144,0.74,-0.07
0.00000148,0.74,-0.068
0.00000152,0.76,-0.068
0.00000156,0.76,-0.066
0.0000016,0.76,-0.064
0.00000164,0.78,-0.064
0.00000168,0.78,-0.062
0.00000172,0.78,-0.062
0.00000176,0.78,-0.06
0.0000018,0.78,-0.06
0.00000184,0.8,-0.058
0.00000188,0.8,-0.058
0.00000192,0.8,-0.056
0.00000196,0.8,-0.054
0.000002,0.82,-0.054
0.00000204,0.82,-0.052
0.00000208,0.82,-0.052
0.00000212,0.82,-0.05
0.00000216,0.84,-0.05
0.0000022,0.84,-0.048
0.00000224,0.84,-0.046
0.00000228,0.84,-0.046
0.00000232,0.84,-0.044
0.00000236,0.84,-0.044
0.0000024,0.86,-0.042
0.00000244,0.86,-0.042
0.00000248,0.86,-0.04
0.00000252,0.86,-0.038
0.00000256,0.86,-0.038
0.0000026,0.86,-0.036
0.00000264,0.88,-0.034
0.00000268,0.88,-0.034
0.00000272,0.88,-0.032
0.00000276,0.88,-0.032
0.0000028,0.88,-0.03
0.00000284,0.9,-0.03
0.00000288,0.9,-0.028
0.00000292,0.9,-0.026
0.00000296,0.9,-0.026
0.000003,0.9,-0.024
0.00000304,0.9,-0.022
0.00000308,0.9,-0.022
0.00000312,0.92,-0.02
0.00000316,0.92,-0.02
0.0000032,0.92,-0.018
0.00000324,0.92,-0.016
0.00000328,0.92,-0.016
0.00000332,0.92,-0.014
0.00000336,0.92,-0.012
0.0000034,0.92,-0.012
0.00000344,0.92,-0.01
0.00000348,0.94,-0.01
0.00000352,0.94,-0.008
0.00000356,0.94,-0.006
0.0000036,0.94,-0.006
0.00000364,0.94,-0.004
0.00000368,0.94,-0.004
0.00000372,0.94,-0.002
0.00000376,0.94,0
0.0000038,0.94,0
0.00000384,0.94,0.002
0.00000388,0.94,0.004
0.00000392,0.94,0.004
0.00000396,0.94,0.006
0.000004,0.96,0.008
0.00000404,0.96,0.008
0.00000408,0.96,0.01
0.00000412,0.96,0.01
0.00000416,0.96,0.012
0.0000042,0.96,0.014
0.00000424,0.96,0.014
0.00000428,0.96,0.016
0.00000432,0.96,0.016
0.00000436,0.96,0.018
0.0000044,0.96,0.02
0.00000444,0.96,0.02
0.00000448,0.96,0.022
0.00000452,0.96,0.024
0.00000456,0.96,0.024
0.0000046,0.96,0.026
0.00000464,0.96,0.026
0.00000468,0.96,0.028
0.00000472,0.96,0.03
0.00000476,0.96,0.03
0.0000048,0.96,0.032
0.00000484,0.96,0.032
0.00000488,0.96,0.034
0.00000492,0.96,0.036
0.00000496,0.96,0.036
0.000005,0.96,0.038
0.00000504,0.96,0.04
0.00000508,0.96,0.04
0.00000512,0.96,0.042
0.00000516,0.96,0.042
0.0000052,0.96,0.044
0.00000524,0.96,0.046
0.00000528,0.96,0.046
0.00000532,0.96,0.048
0.00000536,0.96,0.048
0.0000054,0.94,0.05
0.00000544,0.94,0.05
0.00000548,0.94,0.052
0.00000552,0.94,0.054
0.00000556,0.94,0.054
0.0000056,0.94,0.056
0.00000564,0.94,0.056
0.00000568,0.94,0.058
0.00000572,0.94,0.058
0.00000576,0.94,0.06
0.0000058,0.94,0.062
0.00000584,0.92,0.062
0.00000588,0.92,0.064
0.00000592,0.92,0.064
0.00000596,0.92,0.066
0.000006,0.92,0.066
0.00000604,0.92,0.068
0.00000608,0.92,0.07
0.00000612,0.92,0.07
0.00000616,0.9,0.072
0.0000062,0.9,0.072
0.00000624,0.9,0.074
0.00000628,0.9,0.074
0.00000632,0.9,0.076
0.00000636,0.9,0.076
0.0000064,0.9,0.078
0.00000644,0.88,0.078
0.00000648,0.88,0.08
0.00000652,0.88,0.08
0.00000656,0.88,0.082
0.0000066,0.88,0.084
0.00000664,0.88,0.084
0.00000668,0.86,0.084
0.00000672,0.86,0.086
0.00000676,0.86,0.086
0.0000068,0.86,0.088
0.00000684,0.86,0.088
0.00000688,0.84,0.09
0.00000692,0.84,0.09
0.00000696,0.84,0.092
0.000007,0.84,0.092
0.00000704,0.84,0.094
0.00000708,0.84,0.094
0.00000712,0.82,0.096
0.00000716,0.82,0.096
0.0000072,0.82,0.098
0.00000724,0.82,0.098
0.00000728,0.8,0.1
0.00000732,0.8,0.1
0.00000736,0.8,0.1
0.0000074,0.8,0.102
0.00000744,0.8,0.102
0.00000748,0.78,0.104
0.00000752,0.78,0.104
0.00000756,0.78,0.106
0.0000076,0.76,0.106
0.00000764,0.76,0.108
0.00000768,0.76,0.108
0.00000772,0.76,0.108
0.00000776,0.76,0.11
0.0000078,0.74,0.11
0.00000784,0.74,0.112
0.00000788,0.74,0.112
0.00000792,0.72,0.112
0.00000796,0.72,0.114
0.000008,0.72,0.114
0.00000804,0.72,0.116
0.00000808,0.7,0.116
0.00000812,0.7,0.116
0.00000816,0.7,0.118
0.0000082,0.7,0.118
0.00000824,0.68,0.118
0.00000828,0.68,0.12
0.00000832,0.68,0.12
0.00000836,0.66,0.12
0.0000084,0.66,0.122
0.00000844,0.66,0.122
0.00000848,0.66,0.124
0.00000852,0.64,0.124
0.00000856,0.64,0.124
0.0000086,0.64,0.126
0.00000864,0.62,0.126
0.00000868,0.62,0.126
0.00000872,0.62,0.126
0.00000876,0.6,0.128
0.0000088,0.6,0.128
0.00000884,0.6,0.128
0.00000888,0.58,0.13
0.00000892,0.58,0.13
0.00000896,0.58,0.13
0.000009,0.56,0.13
0.00000904,0.56,0.132
0.00000908,0.56,0.132
0.00000912,0.54,0.132
0.00000916,0.54,0.134
0.0000092,0.54,0.134
0.00000924,0.52,0.134
0.00000928,0.52,0.134
0.00000932,0.52,0.136
0.00000936,0.5,0.136
0.0000094,0.5,0.136
0.00000944,0.5,0.136
0.00000948,0.48,0.136
0.00000952,0.48,0.138
0.00000956,0.48,0.138
0.0000096,0.46,0.138
0.00000964,0.46,0.138
0.00000968,0.44,0.138
0.00000972,0.44,0.14
0.00000976,0.44,0.14
0.0000098,0.42,0.14
0.00000984,0.42,0.14
0.00000988,0.42,0.14
0.00000992,0.4,0.14
0.00000996,0.4,0.142
0.00001,0.38,0.142
0.00001004,0.38,0.142
0.00001008,0.38,0.142
0.00001012,0.36,0.142
0.00001016,0.36,0.142
0.0000102,0.36,0.142
0.00001024,0.34,0.144
0.00001028,0.34,0.144
0.00001032,0.32,0.144
0.00001036,0.32,0.144
0.0000104,0.32,0.144
0.00001044,0.3,0.144
0.00001048,0.3,0.144
0.00001052,0.28,0.144
0.00001056,0.28,0.144
0.0000106,0.28,0.144
0.00001064,0.26,0.146
0.00001068,0.26,0.146
0.00001072,0.24,0.146
0.00001076,0.24,0.146
0.0000108,0.24,0.146
0.00001084,0.22,0.146
0.00001088,0.22,0.146
0.00001092,0.2,0.146
0.00001096,0.2,0.146
0.000011,0.2,0.146
0.00001104,0.18,0.146
0.00001108,0.18,0.146
0.00001112,0.16,0.146
0.00001116,0.16,0.146
0.0000112,0.16,0.146
0.00001124,0.14,0.146
0.00001128,0.14,0.146
0.00001132,0.12,0.146
0.00001136,0.12,0.146
0.0000114,0.12,0.146
0.00001144,0.1,0.146
0.00001148,0.1,0.146
0.00001152,0.08,0.146
0.00001156,0.08,0.146
0.0000116,0.08,0.146
0.00001164,0.06,0.146
0.00001168,0.06,0.144
0.00001172,0.04,0.146
0.00001176,0.04,0.144
0.0000118,0.02,0.144
0.00001184,0.02,0.144
0.00001188,0.02,0.144
0.00001192,0,0.144
0.00001196,0,0.144
0.000012,-0.02,0.144
0.00001204,-0.02,0.144
0.00001208,-0.02,0.144
0.00001212,-0.04,0.142
0.00001216,-0.04,0.142
0.0000122,-0.06,0.142
0.00001224,-0.06,0.142
0.00001228,-0.08,0.142
0.00001232,-0.08,0.142
0.00001236,-0.08,0.142
0.0000124,-0.1,0.142
0.00001244,-0.1,0.14
0.00001248,-0.12,0.14
0.00001252,-0.12,0.14
0.00001256,-0.14,0.14
0.0000126,-0.14,0.14
0.00001264,-0.14,0.14
0.00001268,-0.16,0.138
0.00001272,-0.16,0.138
0.00001276,-0.18,0.138
0.0000128,-0.18,0.138
0.00001284,-0.18,0.136
0.00001288,-0.2,0.136
0.00001292,-0.2,0.136
0.00001296,-0.22,0.136
0.000013,-0.22,0.136
0.00001304,-0.22,0.134
0.00001308,-0.24,0.134
0.00001312,-0.24,0.134
0.00001316,-0.26,0.134
0.0000132,-0.26,0.132
0.00001324,-0.26,0.132
0.00001328,-0.28,0.132
0.00001332,-0.28,0.13
0.00001336,-0.3,0.13
0.0000134,-0.3,0.13
0.00001344,-0.32,0.13
0.00001348,-0.32,0.128
0.00001352,-0.32,0.128
0.00001356,-0.34,0.128
0.0000136,-0.34,0.126
0.00001364,-0.34,0.126
0.00001368,-0.36,0.126
0.00001372,-0.36,0.126
0.00001376,-0.38,0.124
0.0000138,-0.38,0.124
0.00001384,-0.38,0.124
0.00001388,-0.4,0.122
0.00001392,-0.4,0.122
0.00001396,-0.42,0.122
0.000014,-0.42,0.12
0.00001404,-0.42,0.12
0.00001408,-0.44,0.118
0.00001412,-0.44,0.118
0.00001416,-0.44,0.118
0.0000142,-0.46,0.116
0.00001424,-0.46,0.116
0.00001428,-0.48,0.116
0.00001432,-0.48,0.114
0.00001436,-0.48,0.114
0.0000144,-0.5,0.112
0.00001444,-0.5,0.112
0.00001448,-0.52,0.112
0.00001452,-0.52,0.11
0.00001456,-0.52,0.11
0.0000146,-0.52,0.108
0.00001464,-0.54,0.108
0.00001468,-0.54,0.108
0.00001472,-0.56,0.106
0.00001476,-0.56,0.106
0.0000148,-0.56,0.104
0.00001484,-0.58,0.104
0.00001488,-0.58,0.102
0.00001492,-0.58,0.102
0.00001496,-0.6,0.1
0.000015,-0.6,0.1
0.00001504,-0.6,0.1
0.00001508,-0.62,0.098
0.00001512,-0.62,0.098
0.00001516,-0.62,0.096
0.0000152,-0.64,0.096
0.00001524,-0.64,0.094
0.00001528,-0.64,0.094
0.00001532,-0.64,0.092
0.00001536,-0.66,0.092
0.0000154,-0.66,0.09
0.00001544,-0.68,0.09
0.00001548,-0.68,0.088
0.00001552,-0.68,0.088
0.00001556,-0.68,0.086
0.0000156,-0.7,0.086
0.00001564,-0.7,0.084
0.00001568,-0.7,0.084
0.00001572,-0.72,0.082
0.00001576,-0.72,0.082
0.0000158,-0.72,0.08
0.00001584,-0.72,0.08
0.00001588,-0.74,0.078
0.00001592,-0.74,0.078
0.00001596,-0.74,0.076
0.000016,-0.76,0.076
0.00001604,-0.76,0.074
0.00001608,-0.76,0.074
0.00001612,-0.76,0.072
0.00001616,-0.78,0.072
0.0000162,-0.78,0.07
0.00001624,-0.78,0.068
0.00001628,-0.78,0.068
0.00001632,-0.8,0.066
0.00001636,-0.8,0.066
0.0000164,-0.8,0.064
0.00001644,-0.8,0.064
0.00001648,-0.82,0.062
0.00001652,-0.82,0.06
0.00001656,-0.82,0.06
0.0000166,-0.82,0.058
0.00001664,-0.82,0.058
0.00001668,-0.84,0.056
0.00001672,-0.84,0.056
0.00001676,-0.84,0.054
0.0000168,-0.84,0.054
0.00001684,-0.86,0.052
0.00001688,-0.86,0.05
0.00001692,-0.86,0.05
0.00001696,-0.86,0.048
0.000017,-0.86,0.048
0.00001704,-0.88,0.046
0.00001708,-0.88,0.044
0.00001712,-0.88,0.044
0.00001716,-0.88,0.042
0.0000172,-0.88,0.042
0.00001724,-0.88,0.04
0.00001728,-0.9,0.038
0.00001732,-0.9,0.038
0.00001736,-0.9,0.036
0.0000174,-0.9,0.036
0.00001744,-0.9,0.034
0.00001748,-0.9,0.032
0.00001752,-0.92,0.032
0.00001756,-0.92,0.03
0.0000176,-0.92,0.03
0.00001764,-0.92,0.028
0.00001768,-0.92,0.026
0.00001772,-0.92,0.026
0.00001776,-0.92,0.024
0.0000178,-0.94,0.024
0.00001784,-0.94,0.022
0.00001788,-0.94,0.02
0.00001792,-0.94,0.02
0.00001796,-0.94,0.018
0.000018,-0.94,0.016
0.00001804,-0.94,0.016
0.00001808,-0.96,0.014
0.00001812,-0.96,0.014
0.00001816,-0.96,0.012
0.0000182,-0.96,0.01
0.00001824,-0.96,0.01
0.00001828,-0.96,0.008
0.00001832,-0.96,0.008
0.00001836,-0.96,0.006
0.0000184,-0.96,0.004
0.00001844,-0.96,0.004
0.00001848,-0.96,0.002
0.00001852,-0.96,0
0.00001856,-0.98,0
0.0000186,-0.98,-0.002
0.00001864,-0.98,-0.004
0.00001868,-0.98,-0.004
0.00001872,-0.98,-0.006
0.00001876,-0.98,-0.006
0.0000188,-0.98,-0.008
0.00001884,-0.98,-0.01
0.00001888,-0.98,-0.01
0.00001892,-0.98,-0.012
0.00001896,-0.98,-0.014
0.000019,-0.98,-0.014
0.00001904,-0.98,-0.016
0.00001908,-0.98,-0.016
0.00001912,-0.98,-0.018
0.00001916,-0.98,-0.02
0.0000192,-0.98,-0.02
0.00001924,-0.98,-0.022
0.00001928,-0.98,-0.022
0.00001932,-0.98,-0.024
0.00001936,-0.98,-0.026
0.0000194,-0.98,-0.026
0.00001944,-0.98,-0.028
0.00001948,-0.98,-0.03
0.00001952,-0.98,-0.03
0.00001956,-0.98,-0.032
0.0000196,-0.98,-0.032
0.00001964,-0.98,-0.034
0.00001968,-0.98,-0.034
0.00001972,-0.98,-0.036
0.00001976,-0.98,-0.038
0.0000198,-0.98,-0.038
0.00001984,-0.98,-0.04
0.00001988,-0.98,-0.04
0.00001992,-0.98,-0.042
0.00001996,-0.98,-0.044
0.00002,-0.98,-0.044
0.00002004,-0.98,-0.046
0.00002008,-0.96,-0.046
0.00002012,-0.96,-0.048
0.00002016,-0.96,-0.05
0.0000202,-0.96,-0.05
0.00002024,-0.96,-0.052
0.00002028,-0.96,-0.052
0.00002032,-0.96,-0.054
0.00002036,-0.96,-0.056
0.0000204,-0.96,-0.056
0.00002044,-0.96,-0.056
0.00002048,-0.96,-0.058
0.00002052,-0.94,-0.06
0.00002056,-0.94,-0.06
0.0000206,-0.94,-0.062
0.00002064,-0.94,-0.062
0.00002068,-0.94,-0.064
0.00002072,-0.94,-0.064
0.00002076,-0.94,-0.066
0.0000208,-0.94,-0.068
0.00002084,-0.92,-0.068
0.00002088,-0.92,-0.07
0.00002092,-0.92,-0.07
0.00002096,-0.92,-0.072
0.000021,-0.92,-0.072
0.00002104,-0.92,-0.074
0.00002108,-0.92,-0.074
0.00002112,-0.9,-0.076
0.00002116,-0.9,-0.076
0.0000212,-0.9,-0.078
0.00002124,-0.9,-0.078
0.00002128,-0.9,-0.08
0.00002132,-0.9,-0.08
0.00002136,-0.88,-0.082
0.0000214,-0.88,-0.082
0.00002144,-0.88,-0.084
0.00002148,-0.88,-0.084
0.00002152,-0.88,-0.086
0.00002156,-0.88,-0.086
0.0000216,-0.86,-0.088
0.00002164,-0.86,-0.088
0.00002168,-0.86,-0.09
0.00002172,-0.86,-0.09
0.00002176,-0.86,-0.092
0.0000218,-0.84,-0.092
0.00002184,-0.84,-0.094
0.00002188,-0.84,-0.094
0.00002192,-0.84,-0.096
0.00002196,-0.82,-0.096
0.000022,-0.82,-0.096
0.00002204,-0.82,-0.098
0.00002208,-0.82,-0.098
0.00002212,-0.8,-0.1
0.00002216,-0.8,-0.1
0.0000222,-0.8,-0.102
0.00002224,-0.8,-0.102
0.00002228,-0.8,-0.102
0.00002232,-0.78,-0.104
0.00002236,-0.78,-0.104
0.0000224,-0.78,-0.106
0.00002244,-0.78,-0.106
0.00002248,-0.76,-0.108
0.00002252,-0.76,-0.108
0.00002256,-0.76,-0.108
0.0000226,-0.74,-0.11
0.00002264,-0.74,-0.11
0.00002268,-0.74,-0.112
0.00002272,-0.74,-0.112
0.00002276,-0.72,-0.112
0.0000228,-0.72,-0.114
0.00002284,-0.72,-0.114
0.00002288,-0.7,-0.116
0.00002292,-0.7,-0.116
0.00002296,-0.7,-0.116
0.000023,-0.7,-0.118
0.00002304,-0.68,-0.118
0.00002308,-0.68,-0.118
0.00002312,-0.68,-0.12
0.00002316,-0.68,-0.12
0.0000232,-0.66,-0.12
0.00002324,-0.66,-0.12
0.00002328,-0.66,-0.122
0.00002332,-0.64,-0.122
0.00002336,-0.64,-0.122
0.0000234,-0.64,-0.124
0.00002344,-0.62,-0.124
0.00002348,-0.62,-0.124
0.00002352,-0.62,-0.126
0.00002356,-0.6,-0.126
0.0000236,-0.6,-0.126
0.00002364,-0.6,-0.128
0.00002368,-0.58,-0.128
0.00002372,-0.58,-0.128
0.00002376,-0.58,-0.128
0.0000238,-0.56,-0.13
0.00002384,-0.56,-0.13
0.00002388,-0.56,-0.13
0.00002392,-0.54,-0.13
0.00002396,-0.54,-0.13
0.000024,-0.54,-0.132
0.00002404,-0.52,-0.132
0.00002408,-0.52,-0.132
0.00002412,-0.5,-0.132
0.00002416,-0.5,-0.134
0.0000242,-0.5,-0.134
0.00002424,-0.48,-0.134
0.00002428,-0.48,-0.134
0.00002432,-0.48,-0.134
0.00002436,-0.46,-0.136
0.0000244,-0.46,-0.136
0.00002444,-0.44,-0.136
0.00002448,-0.44,-0.136
0.00002452,-0.44,-0.136
0.00002456,-0.42,-0.138
0.0000246,-0.42,-0.138
0.00002464,-0.42,-0.138
0.00002468,-0.4,-0.138
0.00002472,-0.4,-0.138
0.00002476,-0.38,-0.138
0.0000248,-0.38,-0.14
0.00002484,-0.38,-0.14
0.00002488,-0.36,-0.14
0.00002492,-0.36,-0.14
0.00002496,-0.34,-0.14
0.000025,-0.34,-0.14
0.00002504,-0.34,-0.14
0.00002508,-0.32,-0.14
0.00002512,-0.32,-0.14
0.00002516,-0.3,-0.14
0.0000252,-0.3,-0.142
0.00002524,-0.3,-0.142
0.00002528,-0.28,-0.142
0.00002532,-0.28,-0.142
0.00002536,-0.26,-0.142
0.0000254,-0.26,-0.142
0.00002544,-0.26,-0.142
0.00002548,-0.24,-0.142
0.00002552,-0.24,-0.142
0.00002556,-0.22,-0.142
0.0000256,-0.22,-0.142
0.00002564,-0.22,-0.142
0.00002568,-0.2,-0.142
0.00002572,-0.2,-0.142
0.00002576,-0.18,-0.142
0.0000258,-0.18,-0.142
0.00002584,-0.18,-0.142
0.00002588,-0.16,-0.142
0.00002592,-0.16,-0.142
0.00002596,-0.14,-0.142
0.000026,-0.14,-0.142
0.00002604,-0.14,-0.142
0.00002608,-0.12,-0.142
0.00002612,-0.12,-0.142
0.00002616,-0.1,-0.142
0.0000262,-0.1,-0.142
0.00002624,-0.08,-0.142
0.00002628,-0.08,-0.142
0.00002632,-0.08,-0.142
0.00002636,-0.06,-0.142
0.0000264,-0.06,-0.142
0.00002644,-0.04,-0.142
0.00002648,-0.04,-0.14
0.00002652,-0.04,-0.142
0.00002656,-0.02,-0.14
0.0000266,-0.02,-0.14
0.00002664,0,-0.14
0.00002668,0,-0.14
0.00002672,0,-0.14
0.00002676,0.02,-0.14
0.0000268,0.02,-0.14
0.00002684,0.04,-0.14
0.00002688,0.04,-0.138
0.00002692,0.04,-0.138
0.00002696,0.06,-0.138
0.000027,0.06,-0.138
0.00002704,0.08,-0.138
0.00002708,0.08,-0.138
0.00002712,0.1,-0.136
0.00002716,0.1,-0.136
0.0000272,0.1,-0.136
0.00002724,0.12,-0.136
0.00002728,0.12,-0.136
0.00002732,0.14,-0.136
0.00002736,0.14,-0.134
0.0000274,0.14,-0.134
0.00002744,0.16,-0.134
0.00002748,0.16,-0.134
0.00002752,0.18,-0.134
0.00002756,0.18,-0.132
0.0000276,0.2,-0.132
0.00002764,0.2,-0.132
0.00002768,0.2,-0.132
0.00002772,0.22,-0.13
0.00002776,0.22,-0.13
0.0000278,0.24,-0.13
0.00002784,0.24,-0.13
0.00002788,0.24,-0.128
0.00002792,0.26,-0.128
0.00002796,0.26,-0.128
0.000028,0.28,-0.128
0.00002804,0.28,-0.126
0.00002808,0.28,-0.126
0.00002812,0.3,-0.126
0.00002816,0.3,-0.124
0.0000282,0.32,-0.124
0.00002824,0.32,-0.124
0.00002828,0.32,-0.124
0.00002832,0.34,-0.122
0.00002836,0.34,-0.122
0.0000284,0.34,-0.122
0.00002844,0.36,-0.12
0.00002848,0.36,-0.12
0.00002852,0.38,-0.12
0.00002856,0.38,-0.118
0.0000286,0.38,-0.118
0.00002864,0.4,-0.118
0.00002868,0.4,-0.116
0.00002872,0.42,-0.116
0.00002876,0.42,-0.116
0.0000288,0.42,-0.114
0.00002884,0.44,-0.114
0.00002888,0.44,-0.112
0.00002892,0.44,-0.112
0.00002896,0.46,-0.112
0.000029,0.46,-0.11
0.00002904,0.46,-0.11
0.00002908,0.48,-0.108
0.00002912,0.48,-0.108
0.00002916,0.5,-0.108
0.0000292,0.5,-0.106
0.00002924,0.5,-0.106
0.00002928,0.52,-0.104
0.00002932,0.52,-0.104
0.00002936,0.52,-0.104
0.0000294,0.54,-0.102
0.00002944,0.54,-0.102
0.00002948,0.54,-0.1
0.00002952,0.56,-0.1
0.00002956,0.56,-0.1
0.0000296,0.56,-0.098
0.00002964,0.58,-0.098
0.00002968,0.58,-0.096
0.00002972,0.58,-0.096
0.00002976,0.6,-0.094
0.0000298,0.6,-0.094
0.00002984,0.6,-0.092
0.00002988,0.62,-0.092
0.00002992,0.62,-0.09
0.00002996,0.62,-0.09
0.00003,0.64,-0.09
0.00003004,0.64,-0.088
0.00003008,0.64,-0.086
0.00003012,0.66,-0.086
0.00003016,0.66,-0.086
0.0000302,0.66,-0.084
0.00003024,0.66,-0.084
0.00003028,0.68,-0.082
0.00003032,0.68,-0.08
0.00003036,0.68,-0.08
0.0000304,0.7,-0.078
0.00003044,0.7,-0.078
0.00003048,0.7,-0.076
0.00003052,0.7,-0.076
0.00003056,0.72,-0.074
0.0000306,0.72,-0.074
0.00003064,0.72,-0.072
0.00003068,0.72,-0.072
0.00003072,0.74,-0.07
0.00003076,0.74,-0.07
0.0000308,0.74,-0.068
0.00003084,0.76,-0.068
0.00003088,0.76,-0.066
0.00003092,0.76,-0.066
0.00003096,0.76,-0.064
0.000031,0.78,-0.064
0.00003104,0.78,-0.062
0.00003108,0.78,-0.06
0.00003112,0.78,-0.06
0.00003116,0.8,-0.058
0.0000312,0.8,-0.058
0.00003124,0.8,-0.056
0.00003128,0.8,-0.056
0.00003132,0.8,-0.054
0.00003136,0.82,-0.054
0.0000314,0.82,-0.052
0.00003144,0.82,-0.05
0.00003148,0.82,-0.05
0.00003152,0.82,-0.048
0.00003156,0.84,-0.048
0.0000316,0.84,-0.046
0.00003164,0.84,-0.044
0.00003168,0.84,-0.044
0.00003172,0.86,-0.042
0.00003176,0.86,-0.042
0.0000318,0.86,-0.04
0.00003184,0.86,-0.038
0.00003188,0.86,-0.038
0.00003192,0.86,-0.036
0.00003196,0.88,-0.036
0.000032,0.88,-0.034
0.00003204,0.88,-0.032
0.00003208,0.88,-0.032
0.00003212,0.88,-0.03
0.00003216,0.88,-0.03
0.0000322,0.9,-0.028
0.00003224,0.9,-0.026
0.00003228,0.9,-0.026
0.00003232,0.9,-0.024
0.00003236,0.9,-0.024
0.0000324,0.9,-0.022
0.00003244,0.9,-0.02
0.00003248,0.92,-0.02
0.00003252,0.92,-0.018
0.00003256,0.92,-0.016
0.0000326,0.92,-0.016
0.00003264,0.92,-0.014
0.00003268,0.92,-0.014
0.00003272,0.92,-0.012
0.00003276,0.92,-0.01
0.0000328,0.92,-0.01
0.00003284,0.94,-0.008
0.00003288,0.94,-0.008
0.00003292,0.94,-0.006
0.00003296,0.94,-0.004
0.000033,0.94,-0.004
0.00003304,0.94,-0.002
0.00003308,0.94,0
0.00003312,0.94,0
0.00003316,0.94,0.002
0.0000332,0.94,0.002
0.00003324,0.94,0.004
0.00003328,0.96,0.006
0.00003332,0.96,0.006
0.00003336,0.96,0.008
0.0000334,0.96,0.01
0.00003344,0.96,0.01
0.00003348,0.96,0.012
0.00003352,0.96,0.012
0.00003356,0.96,0.014
0.0000336,0.96,0.016
0.00003364,0.96,0.016
0.00003368,0.96,0.018
0.00003372,0.96,0.02
0.00003376,0.96,0.02
0.0000338,0.96,0.022
0.00003384,0.96,0.022
0.00003388,0.96,0.024
0.00003392,0.96,0.026
0.00003396,0.96,0.026
0.000034,0.96,0.028
0.00003404,0.96,0.028
0.00003408,0.96,0.03
0.00003412,0.96,0.032
0.00003416,0.96,0.032
0.0000342,0.96,0.034
0.00003424,0.96,0.034
0.00003428,0.96,0.036
0.00003432,0.96,0.038
0.00003436,0.96,0.038
0.0000344,0.96,0.04
0.00003444,0.96,0.042
0.00003448,0.96,0.042
0.00003452,0.96,0.044
0.00003456,0.96,0.044
0.0000346,0.96,0.046
0.00003464,0.96,0.048
0.00003468,0.94,0.048
0.00003472,0.94,0.05
0.00003476,0.94,0.05
0.0000348,0.94,0.052
0.00003484,0.94,0.052
0.00003488,0.94,0.054
0.00003492,0.94,0.056
0.00003496,0.94,0.056
0.000035,0.94,0.058
0.00003504,0.94,0.058
0.00003508,0.94,0.06
0.00003512,0.94,0.06
0.00003516,0.92,0.062
0.0000352,0.92,0.062
0.00003524,0.92,0.064
0.00003528,0.92,0.066
0.00003532,0.92,0.066
0.00003536,0.92,0.068
0.0000354,0.92,0.068
0.00003544,0.92,0.07
0.00003548,0.9,0.07
0.00003552,0.9,0.072
0.00003556,0.9,0.074
0.0000356,0.9,0.074
0.00003564,0.9,0.076
0.00003568,0.9,0.076
0.00003572,0.9,0.078
0.00003576,0.9,0.078
0.0000358,0.88,0.08
0.00003584,0.88,0.08
0.00003588,0.88,0.082
0.00003592,0.88,0.082
0.00003596,0.88,0.084
0.000036,0.88,0.084
0.00003604,0.86,0.086
0.00003608,0.86,0.086
0.00003612,0.86,0.088
0.00003616,0.86,0.088
0.0000362,0.86,0.09
0.00003624,0.84,0.09
0.00003628,0.84,0.092
0.00003632,0.84,0.092
0.00003636,0.84,0.094
0.0000364,0.84,0.094
0.00003644,0.82,0.096
0.00003648,0.82,0.096
0.00003652,0.82,0.098
0.00003656,0.82,0.098
0.0000366,0.82,0.098
0.00003664,0.8,0.1
0.00003668,0.8,0.1
0.00003672,0.8,0.102
0.00003676,0.8,0.102
0.0000368,0.78,0.104
0.00003684,0.78,0.104
0.00003688,0.78,0.106
0.00003692,0.78,0.106
0.00003696,0.76,0.106
0.000037,0.76,0.108
0.00003704,0.76,0.108
0.00003708,0.76,0.11
0.00003712,0.74,0.11
0.00003716,0.74,0.11
0.0000372,0.74,0.112
0.00003724,0.74,0.112
0.00003728,0.72,0.114
0.00003732,0.72,0.114
0.00003736,0.72,0.114
0.0000374,0.7,0.116
0.00003744,0.7,0.116
0.00003748,0.7,0.118
0.00003752,0.7,0.118
0.00003756,0.68,0.118
0.0000376,0.68,0.12
0.00003764,0.68,0.12
0.00003768,0.68,0.12
0.00003772,0.66,0.122
0.00003776,0.66,0.122
0.0000378,0.66,0.122
0.00003784,0.64,0.124
0.00003788,0.64,0.124
0.00003792,0.64,0.124
0.00003796,0.62,0.126
0.000038,0.62,0.126
0.00003804,0.62,0.126
0.00003808,0.6,0.128
0.00003812,0.6,0.128
0.00003816,0.6,0.128
0.0000382,0.58,0.13
0.00003824,0.58,0.13
0.00003828,0.58,0.13
0.00003832,0.58,0.13
0.00003836,0.56,0.132
0.0000384,0.56,0.132
0.00003844,0.56,0.132
0.00003848,0.54,0.132
0.00003852,0.54,0.134
0.00003856,0.52,0.134
0.0000386,0.52,0.134
0.00003864,0.52,0.134
0.00003868,0.52,0.136
0.00003872,0.5,0.136
0.00003876,0.5,0.136
0.0000388,0.48,0.136
0.00003884,0.48,0.138
0.00003888,0.48,0.138
0.00003892,0.46,0.138
0.00003896,0.46,0.138
0.000039,0.46,0.138
0.00003904,0.44,0.138
0.00003908,0.44,0.14
0.00003912,0.42,0.14
0.00003916,0.42,0.14
0.0000392,0.42,0.14
0.00003924,0.4,0.14
0.00003928,0.4,0.142
0.00003932,0.4,0.142
0.00003936,0.38,0.142
0.0000394,0.38,0.142
0.00003944,0.38,0.142
0.00003948,0.36,0.142
0.00003952,0.36,0.142
0.00003956,0.34,0.142
0.0000396,0.34,0.144
0.00003964,0.34,0.144
0.00003968,0.32,0.144
0.00003972,0.32,0.144
0.00003976,0.3,0.144
0.0000398,0.3,0.144
0.00003984,0.28,0.144
0.00003988,0.28,0.144
0.00003992,0.28,0.144
0.00003996,0.26,0.144
0.00004,0.26,0.144
0.00004004,0.24,0.146
0.00004008,0.24,0.146
0.00004012,0.24,0.146
0.00004016,0.22,0.146
0.0000402,0.22,0.146
0.00004024,0.22,0.146
0.00004028,0.2,0.146
0.00004032,0.2,0.146
0.00004036,0.18,0.146
0.0000404,0.18,0.146
0.00004044,0.18,0.146
0.00004048,0.16,0.146
0.00004052,0.16,0.146
0.00004056,0.14,0.146
0.0000406,0.14,0.146
0.00004064,0.12,0.146
0.00004068,0.12,0.146
0.00004072,0.12,0.146
0.00004076,0.1,0.146
0.0000408,0.1,0.146
0.00004084,0.08,0.146
0.00004088,0.08,0.146
0.00004092,0.08,0.146
0.00004096,0.06,0.146
0.000041,0.06,0.146
0.00004104,0.04,0.144
0.00004108,0.04,0.144
0.00004112,0.04,0.144
0.00004116,0.02,0.144
0.0000412,0.02,0.144
0.00004124,0,0.144
0.00004128,0,0.144
0.00004132,-0.02,0.144
0.00004136,-0.02,0.144
0.0000414,-0.02,0.144
0.00004144,-0.04,0.142
0.00004148,-0.04,0.142
0.00004152,-0.06,0.142
0.00004156,-0.06,0.142
0.0000416,-0.06,0.142
0.00004164,-0.08,0.142
0.00004168,-0.08,0.142
0.00004172,-0.1,0.142
0.00004176,-0.1,0.14
0.0000418,-0.1,0.14
0.00004184,-0.12,0.14
0.00004188,-0.12,0.14
0.00004192,-0.14,0.14
0.00004196,-0.14,0.138
0.000042,-0.16,0.138
0.00004204,-0.16,0.138
0.00004208,-0.16,0.138
0.00004212,-0.18,0.138
0.00004216,-0.18,0.138
0.0000422,-0.2,0.136
0.00004224,-0.2,0.136
0.00004228,-0.22,0.136
0.00004232,-0.22,0.136
0.00004236,-0.22,0.134
0.0000424,-0.24,0.134
0.00004244,-0.24,0.134
0.00004248,-0.24,0.134
0.00004252,-0.26,0.132
0.00004256,-0.26,0.132
0.0000426,-0.28,0.132
0.00004264,-0.28,0.132
0.00004268,-0.3,0.13
0.00004272,-0.3,0.13
0.00004276,-0.32,0.13
0.0000428,-0.32,0.128
0.00004284,-0.32,0.128
0.00004288,-0.34,0.128
0.00004292,-0.34,0.128
0.00004296,-0.34,0.126
0.000043,-0.36,0.126
0.00004304,-0.36,0.126
0.00004308,-0.36,0.124
0.00004312,-0.38,0.124
0.00004316,-0.38,0.124
0.0000432,-0.4,0.122
0.00004324,-0.4,0.122
0.00004328,-0.4,0.122
0.00004332,-0.42,0.12
0.00004336,-0.42,0.12
0.0000434,-0.44,0.12
0.00004344,-0.44,0.118
0.00004348,-0.44,0.118
0.00004352,-0.46,0.116
0.00004356,-0.46,0.116
0.0000436,-0.46,0.116
0.00004364,-0.48,0.114
0.00004368,-0.48,0.114
0.00004372,-0.5,0.114
0.00004376,-0.5,0.112
0.0000438,-0.5,0.112
0.00004384,-0.52,0.11
0.00004388,-0.52,0.11
0.00004392,-0.52,0.11
0.00004396,-0.54,0.108
0.000044,-0.54,0.108
0.00004404,-0.54,0.106
0.00004408,-0.56,0.106
0.00004412,-0.56,0.104
0.00004416,-0.58,0.104
0.0000442,-0.58,0.104
0.00004424,-0.58,0.102
0.00004428,-0.58,0.102
0.00004432,-0.6,0.1
0.00004436,-0.6,0.1
0.0000444,-0.6,0.098
0.00004444,-0.62,0.098
0.00004448,-0.62,0.096
0.00004452,-0.62,0.096
0.00004456,-0.64,0.094
0.0000446,-0.64,0.094
0.00004464,-0.64,0.092
0.00004468,-0.66,0.092
0.00004472,-0.66,0.092
0.00004476,-0.66,0.09
0.0000448,-0.68,0.09
0.00004484,-0.68,0.088
0.00004488,-0.68,0.086
0.00004492,-0.7,0.086
0.00004496,-0.7,0.086
0.000045,-0.7,0.084
0.00004504,-0.7,0.082
0.00004508,-0.72,0.082
0.00004512,-0.72,0.08
0.00004516,-0.72,0.08
0.0000452,-0.74,0.08
0.00004524,-0.74,0.078
0.00004528,-0.74,0.076
0.00004532,-0.74,0.076
0.00004536,-0.76,0.074
0.0000454,-0.76,0.074
0.00004544,-0.76,0.072
0.00004548,-0.76,0.072
0.00004552,-0.78,0.07
0.00004556,-0.78,0.07
0.0000456,-0.78,0.068
0.00004564,-0.78,0.066
0.00004568,-0.8,0.066
0.00004572,-0.8,0.064
0.00004576,-0.8,0.064
0.0000458,-0.8,0.062
0.00004584,-0.82,0.062
0.00004588,-0.82,0.06
0.00004592,-0.82,0.06
0.00004596,-0.82,0.058
0.000046,-0.84,0.056
0.00004604,-0.84,0.056
0.00004608,-0.84,0.054
0.00004612,-0.84,0.054
0.00004616,-0.84,0.052
0.0000462,-0.86,0.052
0.00004624,-0.86,0.05
0.00004628,-0.86,0.048
0.00004632,-0.86,0.048
0.00004636,-0.88,0.046
0.0000464,-0.88,0.046
0.00004644,-0.88,0.044
0.00004648,-0.88,0.044
0.00004652,-0.88,0.042
0.00004656,-0.88,0.04
0.0000466,-0.9,0.04
0.00004664,-0.9,0.038
0.00004668,-0.9,0.036
0.00004672,-0.9,0.036
0.00004676,-0.9,0.034
0.0000468,-0.9,0.034
0.00004684,-0.9,0.032
0.00004688,-0.92,0.03
0.00004692,-0.92,0.03
0.00004696,-0.92,0.028
0.000047,-0.92,0.028
0.00004704,-0.92,0.026
0.00004708,-0.92,0.024
0.00004712,-0.94,0.024
0.00004716,-0.94,0.022
0.0000472,-0.94,0.022
0.00004724,-0.94,0.02
0.00004728,-0.94,0.018
0.00004732,-0.94,0.018
0.00004736,-0.94,0.016
0.0000474,-0.94,0.014
0.00004744,-0.94,0.014
0.00004748,-0.96,0.012
0.00004752,-0.96,0.012
0.00004756,-0.96,0.01
0.0000476,-0.96,0.008
0.00004764,-0.96,0.008
0.00004768,-0.96,0.006
0.00004772,-0.96,0.004
0.00004776,-0.96,0.004
0.0000478,-0.96,0.002
0.00004784,-0.98,0.002
0.00004788,-0.96,0
0.00004792,-0.98,-0.002
0.00004796,-0.98,-0.002
0.000048,-0.98,-0.004
0.00004804,-0.98,-0.006
0.00004808,-0.98,-0.006
0.00004812,-0.98,-0.008
0.00004816,-0.98,-0.008
0.0000482,-0.98,-0.01
0.00004824,-0.98,-0.012
0.00004828,-0.98,-0.012
0.00004832,-0.98,-0.014
0.00004836,-0.98,-0.014
0.0000484,-0.98,-0.016
0.00004844,-0.98,-0.018
0.00004848,-0.98,-0.018
0.00004852,-0.98,-0.02
0.00004856,-0.98,-0.022
0.0000486,-0.98,-0.022
0.00004864,-0.98,-0.024
0.00004868,-0.98,-0.024
0.00004872,-0.98,-0.026
0.00004876,-0.98,-0.028
0.0000488,-0.98,-0.028
0.00004884,-0.98,-0.03
0.00004888,-0.98,-0.032
0.00004892,-0.98,-0.032
0.00004896,-0.98,-0.034
0.000049,-0.98,-0.034
0.00004904,-0.98,-0.036
0.00004908,-0.98,-0.036
0.00004912,-0.98,-0.038
0.00004916,-0.98,-0.04
0.0000492,-0.98,-0.04
0.00004924,-0.98,-0.042
0.00004928,-0.98,-0.042
0.00004932,-0.98,-0.044
0.00004936,-0.98,-0.046
0.0000494,-0.96,-0.046
0.00004944,-0.96,-0.048
0.00004948,-0.96,-0.048
0.00004952,-0.96,-0.05
0.00004956,-0.96,-0.052
0.0000496,-0.96,-0.052
0.00004964,-0.96,-0.054
0.00004968,-0.96,-0.054
0.00004972,-0.96,-0.056
0.00004976,-0.96,-0.056
0.0000498,-0.96,-0.058
0.00004984,-0.94,-0.058
0.00004988,-0.94,-0.06
0.00004992,-0.94,-0.062
0.00004996,-0.94,-0.062
